x-axis,1
second,Volt
-76.8000E-06,+93.9499976E-03
-76.7000E-06,+94.5749976E-03
-76.6000E-06,+93.9499976E-03
-76.5000E-06,+94.5749976E-03
-76.4000E-06,+93.9499976E-03
-76.3000E-06,+95.1999975E-03
-76.2000E-06,+93.3249976E-03
-76.1000E-06,+95.1999975E-03
-76.0000E-06,+93.3249976E-03
-75.9000E-06,+95.1999975E-03
-75.8000E-06,+93.3249976E-03
-75.7000E-06,+94.5749976E-03
-75.6000E-06,+93.9499976E-03
-75.5000E-06,+94.5749976E-03
-75.4000E-06,+93.9499976E-03
-75.3000E-06,+94.5749976E-03
-75.2000E-06,+93.9499976E-03
-75.1000E-06,+94.5749976E-03
-75.0000E-06,+93.9499976E-03
-74.9000E-06,+95.1999975E-03
-74.8000E-06,+93.9499976E-03
-74.7000E-06,+95.1999975E-03
-74.6000E-06,+93.3249976E-03
-74.5000E-06,+93.9499976E-03
-74.4000E-06,+93.3249976E-03
-74.3000E-06,+94.5749976E-03
-74.2000E-06,+93.3249976E-03
-74.1000E-06,+94.5749976E-03
-74.0000E-06,+92.0749976E-03
-73.9000E-06,+94.5749976E-03
-73.8000E-06,+92.6999976E-03
-73.7000E-06,+93.9499976E-03
-73.6000E-06,+92.6999976E-03
-73.5000E-06,+93.9499976E-03
-73.4000E-06,+93.3249976E-03
-73.3000E-06,+93.9499976E-03
-73.2000E-06,+93.3249976E-03
-73.1000E-06,+93.9499976E-03
-73.0000E-06,+93.3249976E-03
-72.9000E-06,+93.9499976E-03
-72.8000E-06,+93.3249976E-03
-72.7000E-06,+93.9499976E-03
-72.6000E-06,+93.3249976E-03
-72.5000E-06,+93.9499976E-03
-72.4000E-06,+93.9499976E-03
-72.3000E-06,+93.9499976E-03
-72.2000E-06,+93.3249976E-03
-72.1000E-06,+94.5749976E-03
-72.0000E-06,+93.3249976E-03
-71.9000E-06,+93.3249976E-03
-71.8000E-06,+93.3249976E-03
-71.7000E-06,+93.9499976E-03
-71.6000E-06,+93.3249976E-03
-71.5000E-06,+94.5749976E-03
-71.4000E-06,+93.3249976E-03
-71.3000E-06,+93.9499976E-03
-71.2000E-06,+93.3249976E-03
-71.1000E-06,+93.9499976E-03
-71.0000E-06,+92.6999976E-03
-70.9000E-06,+93.9499976E-03
-70.8000E-06,+93.3249976E-03
-70.7000E-06,+93.9499976E-03
-70.6000E-06,+93.3249976E-03
-70.5000E-06,+93.9499976E-03
-70.4000E-06,+93.3249976E-03
-70.3000E-06,+93.9499976E-03
-70.2000E-06,+92.6999976E-03
-70.1000E-06,+93.9499976E-03
-70.0000E-06,+93.3249976E-03
-69.9000E-06,+93.9499976E-03
-69.8000E-06,+92.0749976E-03
-69.7000E-06,+93.3249976E-03
-69.6000E-06,+92.6999976E-03
-69.5000E-06,+93.9499976E-03
-69.4000E-06,+92.6999976E-03
-69.3000E-06,+93.9499976E-03
-69.2000E-06,+92.0749976E-03
-69.1000E-06,+93.3249976E-03
-69.0000E-06,+92.0749976E-03
-68.9000E-06,+93.3249976E-03
-68.8000E-06,+92.0749976E-03
-68.7000E-06,+93.3249976E-03
-68.6000E-06,+92.0749976E-03
-68.5000E-06,+93.9499976E-03
-68.4000E-06,+92.0749976E-03
-68.3000E-06,+92.6999976E-03
-68.2000E-06,+91.4499976E-03
-68.1000E-06,+93.3249976E-03
-68.0000E-06,+92.0749976E-03
-67.9000E-06,+93.3249976E-03
-67.8000E-06,+92.0749976E-03
-67.7000E-06,+92.6999976E-03
-67.6000E-06,+92.0749976E-03
-67.5000E-06,+93.3249976E-03
-67.4000E-06,+92.0749976E-03
-67.3000E-06,+93.3249976E-03
-67.2000E-06,+92.0749976E-03
-67.1000E-06,+93.3249976E-03
-67.0000E-06,+92.0749976E-03
-66.9000E-06,+93.9499976E-03
-66.8000E-06,+92.0749976E-03
-66.7000E-06,+93.3249976E-03
-66.6000E-06,+92.6999976E-03
-66.5000E-06,+93.3249976E-03
-66.4000E-06,+92.0749976E-03
-66.3000E-06,+92.6999976E-03
-66.2000E-06,+92.0749976E-03
-66.1000E-06,+93.3249976E-03
-66.0000E-06,+92.0749976E-03
-65.9000E-06,+93.3249976E-03
-65.8000E-06,+92.0749976E-03
-65.7000E-06,+92.6999976E-03
-65.6000E-06,+92.0749976E-03
-65.5000E-06,+92.6999976E-03
-65.4000E-06,+92.0749976E-03
-65.3000E-06,+92.6999976E-03
-65.2000E-06,+92.0749976E-03
-65.1000E-06,+93.3249976E-03
-65.0000E-06,+91.4499976E-03
-64.9000E-06,+92.6999976E-03
-64.8000E-06,+92.0749976E-03
-64.7000E-06,+92.6999976E-03
-64.6000E-06,+91.4499976E-03
-64.5000E-06,+92.0749976E-03
-64.4000E-06,+92.0749976E-03
-64.3000E-06,+92.0749976E-03
-64.2000E-06,+91.4499976E-03
-64.1000E-06,+92.0749976E-03
-64.0000E-06,+91.4499976E-03
-63.9000E-06,+92.0749976E-03
-63.8000E-06,+90.1999976E-03
-63.7000E-06,+91.4499976E-03
-63.6000E-06,+90.1999976E-03
-63.5000E-06,+90.8249976E-03
-63.4000E-06,+90.1999976E-03
-63.3000E-06,+92.0749976E-03
-63.2000E-06,+91.4499976E-03
-63.1000E-06,+91.4499976E-03
-63.0000E-06,+90.8249976E-03
-62.9000E-06,+91.4499976E-03
-62.8000E-06,+91.4499976E-03
-62.7000E-06,+91.4499976E-03
-62.6000E-06,+90.8249976E-03
-62.5000E-06,+92.0749976E-03
-62.4000E-06,+90.8249976E-03
-62.3000E-06,+92.6999976E-03
-62.2000E-06,+90.8249976E-03
-62.1000E-06,+92.0749976E-03
-62.0000E-06,+91.4499976E-03
-61.9000E-06,+92.0749976E-03
-61.8000E-06,+91.4499976E-03
-61.7000E-06,+92.0749976E-03
-61.6000E-06,+90.8249976E-03
-61.5000E-06,+92.0749976E-03
-61.4000E-06,+91.4499976E-03
-61.3000E-06,+92.0749976E-03
-61.2000E-06,+91.4499976E-03
-61.1000E-06,+92.0749976E-03
-61.0000E-06,+91.4499976E-03
-60.9000E-06,+91.4499976E-03
-60.8000E-06,+92.0749976E-03
-60.7000E-06,+91.4499976E-03
-60.6000E-06,+90.8249976E-03
-60.5000E-06,+92.0749976E-03
-60.4000E-06,+91.4499976E-03
-60.3000E-06,+90.8249976E-03
-60.2000E-06,+90.1999976E-03
-60.1000E-06,+90.8249976E-03
-60.0000E-06,+90.1999976E-03
-59.9000E-06,+90.8249976E-03
-59.8000E-06,+90.1999976E-03
-59.7000E-06,+91.4499976E-03
-59.6000E-06,+89.5749977E-03
-59.5000E-06,+90.8249976E-03
-59.4000E-06,+89.5749977E-03
-59.3000E-06,+90.1999976E-03
-59.2000E-06,+89.5749977E-03
-59.1000E-06,+90.1999976E-03
-59.0000E-06,+89.5749977E-03
-58.9000E-06,+90.1999976E-03
-58.8000E-06,+89.5749977E-03
-58.7000E-06,+90.8249976E-03
-58.6000E-06,+88.9499977E-03
-58.5000E-06,+90.1999976E-03
-58.4000E-06,+89.5749977E-03
-58.3000E-06,+90.8249976E-03
-58.2000E-06,+90.1999976E-03
-58.1000E-06,+90.1999976E-03
-58.0000E-06,+89.5749977E-03
-57.9000E-06,+90.1999976E-03
-57.8000E-06,+89.5749977E-03
-57.7000E-06,+90.1999976E-03
-57.6000E-06,+89.5749977E-03
-57.5000E-06,+90.8249976E-03
-57.4000E-06,+89.5749977E-03
-57.3000E-06,+90.8249976E-03
-57.2000E-06,+90.1999976E-03
-57.1000E-06,+90.8249976E-03
-57.0000E-06,+90.1999976E-03
-56.9000E-06,+89.5749977E-03
-56.8000E-06,+89.5749977E-03
-56.7000E-06,+90.8249976E-03
-56.6000E-06,+90.1999976E-03
-56.5000E-06,+90.1999976E-03
-56.4000E-06,+89.5749977E-03
-56.3000E-06,+90.1999976E-03
-56.2000E-06,+89.5749977E-03
-56.1000E-06,+90.8249976E-03
-56.0000E-06,+90.1999976E-03
-55.9000E-06,+90.1999976E-03
-55.8000E-06,+90.1999976E-03
-55.7000E-06,+90.1999976E-03
-55.6000E-06,+89.5749977E-03
-55.5000E-06,+90.1999976E-03
-55.4000E-06,+88.9499977E-03
-55.3000E-06,+89.5749977E-03
-55.2000E-06,+89.5749977E-03
-55.1000E-06,+90.1999976E-03
-55.0000E-06,+88.9499977E-03
-54.9000E-06,+89.5749977E-03
-54.8000E-06,+88.3249977E-03
-54.7000E-06,+88.9499977E-03
-54.6000E-06,+87.6999977E-03
-54.5000E-06,+88.9499977E-03
-54.4000E-06,+87.6999977E-03
-54.3000E-06,+89.5749977E-03
-54.2000E-06,+88.3249977E-03
-54.1000E-06,+88.9499977E-03
-54.0000E-06,+88.3249977E-03
-53.9000E-06,+88.9499977E-03
-53.8000E-06,+87.6999977E-03
-53.7000E-06,+88.3249977E-03
-53.6000E-06,+87.6999977E-03
-53.5000E-06,+88.9499977E-03
-53.4000E-06,+88.3249977E-03
-53.3000E-06,+88.9499977E-03
-53.2000E-06,+87.6999977E-03
-53.1000E-06,+88.9499977E-03
-53.0000E-06,+87.0749977E-03
-52.9000E-06,+88.9499977E-03
-52.8000E-06,+87.0749977E-03
-52.7000E-06,+88.3249977E-03
-52.6000E-06,+87.6999977E-03
-52.5000E-06,+88.9499977E-03
-52.4000E-06,+87.6999977E-03
-52.3000E-06,+88.9499977E-03
-52.2000E-06,+87.6999977E-03
-52.1000E-06,+88.9499977E-03
-52.0000E-06,+87.6999977E-03
-51.9000E-06,+89.5749977E-03
-51.8000E-06,+88.3249977E-03
-51.7000E-06,+88.9499977E-03
-51.6000E-06,+88.3249977E-03
-51.5000E-06,+88.9499977E-03
-51.4000E-06,+88.3249977E-03
-51.3000E-06,+88.3249977E-03
-51.2000E-06,+87.6999977E-03
-51.1000E-06,+88.3249977E-03
-51.0000E-06,+87.0749977E-03
-50.9000E-06,+88.3249977E-03
-50.8000E-06,+87.6999977E-03
-50.7000E-06,+87.6999977E-03
-50.6000E-06,+87.0749977E-03
-50.5000E-06,+87.0749977E-03
-50.4000E-06,+87.0749977E-03
-50.3000E-06,+87.0749977E-03
-50.2000E-06,+86.4499977E-03
-50.1000E-06,+86.4499977E-03
-50.0000E-06,+86.4499977E-03
-49.9000E-06,+86.4499977E-03
-49.8000E-06,+85.8249977E-03
-49.7000E-06,+86.4499977E-03
-49.6000E-06,+85.8249977E-03
-49.5000E-06,+85.8249977E-03
-49.4000E-06,+85.1999978E-03
-49.3000E-06,+86.4499977E-03
-49.2000E-06,+85.8249977E-03
-49.1000E-06,+86.4499977E-03
-49.0000E-06,+85.1999978E-03
-48.9000E-06,+85.1999978E-03
-48.8000E-06,+85.1999978E-03
-48.7000E-06,+86.4499977E-03
-48.6000E-06,+84.5749978E-03
-48.5000E-06,+85.8249977E-03
-48.4000E-06,+83.9499978E-03
-48.3000E-06,+85.8249977E-03
-48.2000E-06,+84.5749978E-03
-48.1000E-06,+85.8249977E-03
-48.0000E-06,+85.1999978E-03
-47.9000E-06,+85.8249977E-03
-47.8000E-06,+84.5749978E-03
-47.7000E-06,+86.4499977E-03
-47.6000E-06,+84.5749978E-03
-47.5000E-06,+85.8249977E-03
-47.4000E-06,+85.1999978E-03
-47.3000E-06,+85.1999978E-03
-47.2000E-06,+84.5749978E-03
-47.1000E-06,+85.1999978E-03
-47.0000E-06,+84.5749978E-03
-46.9000E-06,+85.1999978E-03
-46.8000E-06,+84.5749978E-03
-46.7000E-06,+85.1999978E-03
-46.6000E-06,+85.1999978E-03
-46.5000E-06,+85.1999978E-03
-46.4000E-06,+83.3249978E-03
-46.3000E-06,+85.1999978E-03
-46.2000E-06,+84.5749978E-03
-46.1000E-06,+85.1999978E-03
-46.0000E-06,+84.5749978E-03
-45.9000E-06,+85.1999978E-03
-45.8000E-06,+84.5749978E-03
-45.7000E-06,+84.5749978E-03
-45.6000E-06,+83.9499978E-03
-45.5000E-06,+84.5749978E-03
-45.4000E-06,+83.3249978E-03
-45.3000E-06,+83.9499978E-03
-45.2000E-06,+82.6999978E-03
-45.1000E-06,+83.9499978E-03
-45.0000E-06,+83.3249978E-03
-44.9000E-06,+83.3249978E-03
-44.8000E-06,+82.6999978E-03
-44.7000E-06,+83.3249978E-03
-44.6000E-06,+82.0749978E-03
-44.5000E-06,+83.3249978E-03
-44.4000E-06,+81.4499978E-03
-44.3000E-06,+82.6999978E-03
-44.2000E-06,+82.0749978E-03
-44.1000E-06,+83.3249978E-03
-44.0000E-06,+82.0749978E-03
-43.9000E-06,+83.3249978E-03
-43.8000E-06,+82.0749978E-03
-43.7000E-06,+82.6999978E-03
-43.6000E-06,+81.4499978E-03
-43.5000E-06,+82.0749978E-03
-43.4000E-06,+80.8249979E-03
-43.3000E-06,+82.0749978E-03
-43.2000E-06,+81.4499978E-03
-43.1000E-06,+82.0749978E-03
-43.0000E-06,+80.8249979E-03
-42.9000E-06,+81.4499978E-03
-42.8000E-06,+80.1999979E-03
-42.7000E-06,+82.0749978E-03
-42.6000E-06,+80.8249979E-03
-42.5000E-06,+82.0749978E-03
-42.4000E-06,+81.4499978E-03
-42.3000E-06,+82.0749978E-03
-42.2000E-06,+81.4499978E-03
-42.1000E-06,+82.0749978E-03
-42.0000E-06,+80.8249979E-03
-41.9000E-06,+82.0749978E-03
-41.8000E-06,+80.8249979E-03
-41.7000E-06,+80.8249979E-03
-41.6000E-06,+80.1999979E-03
-41.5000E-06,+80.8249979E-03
-41.4000E-06,+80.8249979E-03
-41.3000E-06,+80.8249979E-03
-41.2000E-06,+80.1999979E-03
-41.1000E-06,+80.8249979E-03
-41.0000E-06,+79.5749979E-03
-40.9000E-06,+80.1999979E-03
-40.8000E-06,+78.9499979E-03
-40.7000E-06,+80.1999979E-03
-40.6000E-06,+79.5749979E-03
-40.5000E-06,+79.5749979E-03
-40.4000E-06,+79.5749979E-03
-40.3000E-06,+80.1999979E-03
-40.2000E-06,+78.9499979E-03
-40.1000E-06,+79.5749979E-03
-40.0000E-06,+78.3249979E-03
-39.9000E-06,+79.5749979E-03
-39.8000E-06,+78.3249979E-03
-39.7000E-06,+79.5749979E-03
-39.6000E-06,+78.3249979E-03
-39.5000E-06,+78.3249979E-03
-39.4000E-06,+77.0749979E-03
-39.3000E-06,+78.3249979E-03
-39.2000E-06,+77.0749979E-03
-39.1000E-06,+78.3249979E-03
-39.0000E-06,+77.0749979E-03
-38.9000E-06,+77.6999979E-03
-38.8000E-06,+77.0749979E-03
-38.7000E-06,+77.6999979E-03
-38.6000E-06,+77.0749979E-03
-38.5000E-06,+77.6999979E-03
-38.4000E-06,+75.8249980E-03
-38.3000E-06,+77.0749979E-03
-38.2000E-06,+76.4499980E-03
-38.1000E-06,+77.0749979E-03
-38.0000E-06,+75.8249980E-03
-37.9000E-06,+76.4499980E-03
-37.8000E-06,+75.8249980E-03
-37.7000E-06,+76.4499980E-03
-37.6000E-06,+75.8249980E-03
-37.5000E-06,+76.4499980E-03
-37.4000E-06,+75.8249980E-03
-37.3000E-06,+76.4499980E-03
-37.2000E-06,+75.8249980E-03
-37.1000E-06,+77.0749979E-03
-37.0000E-06,+75.8249980E-03
-36.9000E-06,+76.4499980E-03
-36.8000E-06,+75.8249980E-03
-36.7000E-06,+77.0749979E-03
-36.6000E-06,+74.5749980E-03
-36.5000E-06,+75.1999980E-03
-36.4000E-06,+73.3249980E-03
-36.3000E-06,+74.5749980E-03
-36.2000E-06,+73.9499980E-03
-36.1000E-06,+73.9499980E-03
-36.0000E-06,+72.0749981E-03
-35.9000E-06,+73.3249980E-03
-35.8000E-06,+72.6999980E-03
-35.7000E-06,+73.3249980E-03
-35.6000E-06,+72.0749981E-03
-35.5000E-06,+72.6999980E-03
-35.4000E-06,+71.4499981E-03
-35.3000E-06,+72.6999980E-03
-35.2000E-06,+70.1999981E-03
-35.1000E-06,+71.4499981E-03
-35.0000E-06,+70.8249981E-03
-34.9000E-06,+71.4499981E-03
-34.8000E-06,+70.8249981E-03
-34.7000E-06,+72.0749981E-03
-34.6000E-06,+70.1999981E-03
-34.5000E-06,+70.1999981E-03
-34.4000E-06,+70.1999981E-03
-34.3000E-06,+71.4499981E-03
-34.2000E-06,+70.1999981E-03
-34.1000E-06,+70.8249981E-03
-34.0000E-06,+69.5749981E-03
-33.9000E-06,+71.4499981E-03
-33.8000E-06,+70.1999981E-03
-33.7000E-06,+70.8249981E-03
-33.6000E-06,+68.9499981E-03
-33.5000E-06,+69.5749981E-03
-33.4000E-06,+67.6999982E-03
-33.3000E-06,+69.5749981E-03
-33.2000E-06,+68.3249981E-03
-33.1000E-06,+69.5749981E-03
-33.0000E-06,+68.3249981E-03
-32.9000E-06,+68.9499981E-03
-32.8000E-06,+67.6999982E-03
-32.7000E-06,+68.3249981E-03
-32.6000E-06,+67.6999982E-03
-32.5000E-06,+68.3249981E-03
-32.4000E-06,+67.6999982E-03
-32.3000E-06,+68.9499981E-03
-32.2000E-06,+67.6999982E-03
-32.1000E-06,+68.3249981E-03
-32.0000E-06,+67.6999982E-03
-31.9000E-06,+68.3249981E-03
-31.8000E-06,+67.6999982E-03
-31.7000E-06,+68.3249981E-03
-31.6000E-06,+67.0749982E-03
-31.5000E-06,+67.6999982E-03
-31.4000E-06,+66.4499982E-03
-31.3000E-06,+68.3249981E-03
-31.2000E-06,+66.4499982E-03
-31.1000E-06,+67.0749982E-03
-31.0000E-06,+67.0749982E-03
-30.9000E-06,+67.0749982E-03
-30.8000E-06,+65.1999982E-03
-30.7000E-06,+65.8249982E-03
-30.6000E-06,+65.1999982E-03
-30.5000E-06,+65.8249982E-03
-30.4000E-06,+63.9499982E-03
-30.3000E-06,+65.1999982E-03
-30.2000E-06,+63.9499982E-03
-30.1000E-06,+65.1999982E-03
-30.0000E-06,+63.9499982E-03
-29.9000E-06,+65.1999982E-03
-29.8000E-06,+63.3249982E-03
-29.7000E-06,+64.5749982E-03
-29.6000E-06,+63.9499982E-03
-29.5000E-06,+64.5749982E-03
-29.4000E-06,+63.3249982E-03
-29.3000E-06,+64.5749982E-03
-29.2000E-06,+63.3249982E-03
-29.1000E-06,+63.9499982E-03
-29.0000E-06,+62.6999983E-03
-28.9000E-06,+63.3249982E-03
-28.8000E-06,+62.0749983E-03
-28.7000E-06,+62.6999983E-03
-28.6000E-06,+62.0749983E-03
-28.5000E-06,+63.3249982E-03
-28.4000E-06,+62.0749983E-03
-28.3000E-06,+62.6999983E-03
-28.2000E-06,+61.4499983E-03
-28.1000E-06,+61.4499983E-03
-28.0000E-06,+60.8249983E-03
-27.9000E-06,+61.4499983E-03
-27.8000E-06,+60.8249983E-03
-27.7000E-06,+61.4499983E-03
-27.6000E-06,+60.1999983E-03
-27.5000E-06,+60.1999983E-03
-27.4000E-06,+59.5749983E-03
-27.3000E-06,+60.1999983E-03
-27.2000E-06,+59.5749983E-03
-27.1000E-06,+60.1999983E-03
-27.0000E-06,+59.5749983E-03
-26.9000E-06,+60.1999983E-03
-26.8000E-06,+58.9499983E-03
-26.7000E-06,+59.5749983E-03
-26.6000E-06,+58.9499983E-03
-26.5000E-06,+60.1999983E-03
-26.4000E-06,+58.9499983E-03
-26.3000E-06,+59.5749983E-03
-26.2000E-06,+57.6999984E-03
-26.1000E-06,+58.3249984E-03
-26.0000E-06,+56.4499984E-03
-25.9000E-06,+57.0749984E-03
-25.8000E-06,+55.8249984E-03
-25.7000E-06,+57.0749984E-03
-25.6000E-06,+56.4499984E-03
-25.5000E-06,+56.4499984E-03
-25.4000E-06,+55.1999984E-03
-25.3000E-06,+54.5749984E-03
-25.2000E-06,+53.3249985E-03
-25.1000E-06,+53.9499985E-03
-25.0000E-06,+54.5749984E-03
-24.9000E-06,+54.5749984E-03
-24.8000E-06,+53.3249985E-03
-24.7000E-06,+53.9499985E-03
-24.6000E-06,+53.9499985E-03
-24.5000E-06,+53.9499985E-03
-24.4000E-06,+52.6999985E-03
-24.3000E-06,+53.3249985E-03
-24.2000E-06,+52.6999985E-03
-24.1000E-06,+52.6999985E-03
-24.0000E-06,+52.0749985E-03
-23.9000E-06,+52.6999985E-03
-23.8000E-06,+52.0749985E-03
-23.7000E-06,+53.3249985E-03
-23.6000E-06,+53.3249985E-03
-23.5000E-06,+53.9499985E-03
-23.4000E-06,+53.3249985E-03
-23.3000E-06,+53.9499985E-03
-23.2000E-06,+52.6999985E-03
-23.1000E-06,+53.9499985E-03
-23.0000E-06,+52.6999985E-03
-22.9000E-06,+53.3249985E-03
-22.8000E-06,+52.6999985E-03
-22.7000E-06,+53.3249985E-03
-22.6000E-06,+52.0749985E-03
-22.5000E-06,+53.3249985E-03
-22.4000E-06,+52.6999985E-03
-22.3000E-06,+53.3249985E-03
-22.2000E-06,+52.0749985E-03
-22.1000E-06,+52.6999985E-03
-22.0000E-06,+51.4499985E-03
-21.9000E-06,+51.4499985E-03
-21.8000E-06,+49.5749986E-03
-21.7000E-06,+50.1999985E-03
-21.6000E-06,+48.3249986E-03
-21.5000E-06,+49.5749986E-03
-21.4000E-06,+48.3249986E-03
-21.3000E-06,+49.5749986E-03
-21.2000E-06,+48.3249986E-03
-21.1000E-06,+48.9499986E-03
-21.0000E-06,+47.0749986E-03
-20.9000E-06,+47.0749986E-03
-20.8000E-06,+47.0749986E-03
-20.7000E-06,+48.3249986E-03
-20.6000E-06,+47.6999986E-03
-20.5000E-06,+48.3249986E-03
-20.4000E-06,+47.0749986E-03
-20.3000E-06,+47.6999986E-03
-20.2000E-06,+46.4499986E-03
-20.1000E-06,+46.4499986E-03
-20.0000E-06,+45.1999987E-03
-19.9000E-06,+45.8249986E-03
-19.8000E-06,+44.5749987E-03
-19.7000E-06,+46.4499986E-03
-19.6000E-06,+44.5749987E-03
-19.5000E-06,+45.1999987E-03
-19.4000E-06,+44.5749987E-03
-19.3000E-06,+45.1999987E-03
-19.2000E-06,+43.3249987E-03
-19.1000E-06,+43.9499987E-03
-19.0000E-06,+44.5749987E-03
-18.9000E-06,+45.1999987E-03
-18.8000E-06,+44.5749987E-03
-18.7000E-06,+45.1999987E-03
-18.6000E-06,+43.3249987E-03
-18.5000E-06,+42.0749987E-03
-18.4000E-06,+40.1999988E-03
-18.3000E-06,+40.1999988E-03
-18.2000E-06,+38.9499988E-03
-18.1000E-06,+39.5749988E-03
-18.0000E-06,+38.3249988E-03
-17.9000E-06,+39.5749988E-03
-17.8000E-06,+38.9499988E-03
-17.7000E-06,+39.5749988E-03
-17.6000E-06,+38.9499988E-03
-17.5000E-06,+38.9499988E-03
-17.4000E-06,+39.5749988E-03
-17.3000E-06,+39.5749988E-03
-17.2000E-06,+38.9499988E-03
-17.1000E-06,+38.9499988E-03
-17.0000E-06,+38.3249988E-03
-16.9000E-06,+38.9499988E-03
-16.8000E-06,+38.3249988E-03
-16.7000E-06,+39.5749988E-03
-16.6000E-06,+38.3249988E-03
-16.5000E-06,+39.5749988E-03
-16.4000E-06,+38.3249988E-03
-16.3000E-06,+38.9499988E-03
-16.2000E-06,+37.6999988E-03
-16.1000E-06,+37.6999988E-03
-16.0000E-06,+37.0749988E-03
-15.9000E-06,+37.6999988E-03
-15.8000E-06,+37.0749988E-03
-15.7000E-06,+38.3249988E-03
-15.6000E-06,+37.0749988E-03
-15.5000E-06,+38.3249988E-03
-15.4000E-06,+37.6999988E-03
-15.3000E-06,+37.6999988E-03
-15.2000E-06,+37.0749988E-03
-15.1000E-06,+37.6999988E-03
-15.0000E-06,+36.4499989E-03
-14.9000E-06,+37.0749988E-03
-14.8000E-06,+35.1999989E-03
-14.7000E-06,+36.4499988E-03
-14.6000E-06,+34.5749989E-03
-14.5000E-06,+35.1999989E-03
-14.4000E-06,+33.9499989E-03
-14.3000E-06,+33.9499989E-03
-14.2000E-06,+32.0749989E-03
-14.1000E-06,+32.6999989E-03
-14.0000E-06,+31.4499990E-03
-13.9000E-06,+32.0749989E-03
-13.8000E-06,+31.4499990E-03
-13.7000E-06,+31.4499990E-03
-13.6000E-06,+30.1999990E-03
-13.5000E-06,+29.5749990E-03
-13.4000E-06,+28.3249990E-03
-13.3000E-06,+29.5749990E-03
-13.2000E-06,+27.6999990E-03
-13.1000E-06,+28.9499990E-03
-13.0000E-06,+29.5749990E-03
-12.9000E-06,+31.4499990E-03
-12.8000E-06,+30.1999990E-03
-12.7000E-06,+32.0749989E-03
-12.6000E-06,+30.8249990E-03
-12.5000E-06,+32.0749989E-03
-12.4000E-06,+30.1999990E-03
-12.3000E-06,+30.8249990E-03
-12.2000E-06,+28.9499990E-03
-12.1000E-06,+28.9499990E-03
-12.0000E-06,+27.6999990E-03
-11.9000E-06,+27.0749991E-03
-11.8000E-06,+27.0749991E-03
-11.7000E-06,+28.9499990E-03
-11.6000E-06,+28.3249990E-03
-11.5000E-06,+28.3249990E-03
-11.4000E-06,+27.0749991E-03
-11.3000E-06,+27.6999990E-03
-11.2000E-06,+27.6999990E-03
-11.1000E-06,+27.6999990E-03
-11.0000E-06,+27.6999990E-03
-10.9000E-06,+27.6999990E-03
-10.8000E-06,+26.4499991E-03
-10.7000E-06,+26.4499991E-03
-10.6000E-06,+26.4499991E-03
-10.5000E-06,+27.0749991E-03
-10.4000E-06,+27.0749991E-03
-10.3000E-06,+27.0749991E-03
-10.2000E-06,+27.0749991E-03
-10.1000E-06,+27.0749991E-03
-10.0000E-06,+26.4499991E-03
-9.9000E-06,+27.0749991E-03
-9.8000E-06,+27.0749991E-03
-9.7000E-06,+27.6999990E-03
-9.6000E-06,+27.0749991E-03
-9.5000E-06,+27.6999990E-03
-9.4000E-06,+26.4499991E-03
-9.3000E-06,+27.0749991E-03
-9.2000E-06,+26.4499991E-03
-9.1000E-06,+26.4499991E-03
-9.0000E-06,+25.8249991E-03
-8.9000E-06,+25.8249991E-03
-8.8000E-06,+25.1999991E-03
-8.7000E-06,+26.4499991E-03
-8.6000E-06,+25.1999991E-03
-8.5000E-06,+25.8249991E-03
-8.4000E-06,+23.9499991E-03
-8.3000E-06,+22.0749992E-03
-8.2000E-06,+22.0749992E-03
-8.1000E-06,+21.4499992E-03
-8.0000E-06,+20.1999992E-03
-7.9000E-06,+19.5749992E-03
-7.8000E-06,+18.9499992E-03
-7.7000E-06,+19.5749992E-03
-7.6000E-06,+18.3249993E-03
-7.5000E-06,+20.1999992E-03
-7.4000E-06,+18.9499992E-03
-7.3000E-06,+18.9499992E-03
-7.2000E-06,+18.3249993E-03
-7.1000E-06,+19.5749992E-03
-7.0000E-06,+18.3249993E-03
-6.9000E-06,+18.9499992E-03
-6.8000E-06,+17.6999993E-03
-6.7000E-06,+18.9499992E-03
-6.6000E-06,+18.3249993E-03
-6.5000E-06,+17.6999993E-03
-6.4000E-06,+16.4499993E-03
-6.3000E-06,+17.0749993E-03
-6.2000E-06,+15.8249993E-03
-6.1000E-06,+16.4499993E-03
-6.0000E-06,+15.8249993E-03
-5.9000E-06,+15.1999993E-03
-5.8000E-06,+15.1999993E-03
-5.7000E-06,+14.5749993E-03
-5.6000E-06,+14.5749993E-03
-5.5000E-06,+15.1999993E-03
-5.4000E-06,+15.1999993E-03
-5.3000E-06,+15.1999993E-03
-5.2000E-06,+15.1999993E-03
-5.1000E-06,+13.3249994E-03
-5.0000E-06,+12.0749994E-03
-4.9000E-06,+10.8249994E-03
-4.8000E-06,+9.5749995E-03
-4.7000E-06,+9.5749995E-03
-4.6000E-06,+8.9499995E-03
-4.5000E-06,+9.5749995E-03
-4.4000E-06,+9.5749995E-03
-4.3000E-06,+10.1999994E-03
-4.2000E-06,+8.9499995E-03
-4.1000E-06,+9.5749995E-03
-4.0000E-06,+7.6999995E-03
-3.9000E-06,+6.4499995E-03
-3.8000E-06,+5.1999995E-03
-3.7000E-06,+5.1999995E-03
-3.6000E-06,+3.3249996E-03
-3.5000E-06,+4.5749996E-03
-3.4000E-06,+3.3249996E-03
-3.3000E-06,+3.9499996E-03
-3.2000E-06,+3.3249996E-03
-3.1000E-06,+3.9499996E-03
-3.0000E-06,+2.6999996E-03
-2.9000E-06,+3.9499996E-03
-2.8000E-06,+3.3249996E-03
-2.7000E-06,+3.9499996E-03
-2.6000E-06,+3.9499996E-03
-2.5000E-06,+3.9499996E-03
-2.4000E-06,+3.3249996E-03
-2.3000E-06,+3.3249996E-03
-2.2000E-06,+2.6999996E-03
-2.1000E-06,+3.3249996E-03
-2.0000E-06,+1.4499996E-03
-1.9000E-06,+2.6999996E-03
-1.8000E-06,+1.4499996E-03
-1.7000E-06,+1.4499996E-03
-1.6000E-06,+824.9996E-06
-1.5000E-06,+824.9996E-06
-1.4000E-06,+199.9997E-06
-1.3000E-06,+199.9997E-06
-1.2000E-06,+824.9996E-06
-1.1000E-06,+1.4499996E-03
-1.0000E-06,+199.9997E-06
-900.0E-09,+824.9996E-06
-800.0E-09,-425.0003E-06
-700.0E-09,+199.9997E-06
-600.0E-09,+199.9997E-06
-500.0E-09,+824.9996E-06
-400.0E-09,-425.0003E-06
-300.0E-09,+824.9996E-06
-200.0E-09,+199.9997E-06
-100.0E-09,+824.9996E-06
+0.0E+00,-425.0003E-06
+100.0E-09,+199.9997E-06
+200.0E-09,-425.0003E-06
+300.0E-09,+824.9996E-06
+400.0E-09,-1.0500003E-03
+500.0E-09,+824.9996E-06
+600.0E-09,-425.0003E-06
+700.0E-09,+199.9997E-06
+800.0E-09,-425.0003E-06
+900.0E-09,+199.9997E-06
+1.0000E-06,-425.0003E-06
+1.1000E-06,+199.9997E-06
+1.2000E-06,-425.0003E-06
+1.3000E-06,+199.9997E-06
+1.4000E-06,+199.9997E-06
+1.5000E-06,+199.9997E-06
+1.6000E-06,-425.0003E-06
+1.7000E-06,+824.9996E-06
+1.8000E-06,-425.0003E-06
+1.9000E-06,+824.9996E-06
+2.0000E-06,+199.9997E-06
+2.1000E-06,+824.9996E-06
+2.2000E-06,-425.0003E-06
+2.3000E-06,+824.9996E-06
+2.4000E-06,-425.0003E-06
+2.5000E-06,+199.9997E-06
+2.6000E-06,+199.9997E-06
+2.7000E-06,+824.9996E-06
+2.8000E-06,+199.9997E-06
+2.9000E-06,+199.9997E-06
+3.0000E-06,+199.9997E-06
+3.1000E-06,+199.9997E-06
+3.2000E-06,-425.0003E-06
+3.3000E-06,+199.9997E-06
+3.4000E-06,-1.0500003E-03
+3.5000E-06,+824.9996E-06
+3.6000E-06,-425.0003E-06
+3.7000E-06,+824.9996E-06
+3.8000E-06,-425.0003E-06
+3.9000E-06,+199.9997E-06
+4.0000E-06,-425.0003E-06
+4.1000E-06,+199.9997E-06
+4.2000E-06,-425.0003E-06
+4.3000E-06,-425.0003E-06
+4.4000E-06,-425.0003E-06
+4.5000E-06,+199.9997E-06
+4.6000E-06,-425.0003E-06
+4.7000E-06,+199.9997E-06
+4.8000E-06,-425.0003E-06
+4.9000E-06,+199.9997E-06
+5.0000E-06,-425.0003E-06
+5.1000E-06,+199.9997E-06
+5.2000E-06,-1.0500003E-03
+5.3000E-06,-425.0003E-06
+5.4000E-06,-1.0500003E-03
+5.5000E-06,+199.9997E-06
+5.6000E-06,-425.0003E-06
+5.7000E-06,-425.0003E-06
+5.8000E-06,-1.0500003E-03
+5.9000E-06,-425.0003E-06
+6.0000E-06,-1.0500003E-03
+6.1000E-06,-425.0003E-06
+6.2000E-06,-425.0003E-06
+6.3000E-06,-425.0003E-06
+6.4000E-06,-1.0500003E-03
+6.5000E-06,-425.0003E-06
+6.6000E-06,-425.0003E-06
+6.7000E-06,+199.9997E-06
+6.8000E-06,-1.0500003E-03
+6.9000E-06,+199.9997E-06
+7.0000E-06,-1.0500003E-03
+7.1000E-06,+199.9997E-06
+7.2000E-06,-425.0003E-06
+7.3000E-06,+199.9997E-06
+7.4000E-06,-425.0003E-06
+7.5000E-06,+199.9997E-06
+7.6000E-06,-1.0500003E-03
+7.7000E-06,+824.9996E-06
+7.8000E-06,-425.0003E-06
+7.9000E-06,+199.9997E-06
+8.0000E-06,-425.0003E-06
+8.1000E-06,+199.9997E-06
+8.2000E-06,-425.0003E-06
+8.3000E-06,-425.0003E-06
+8.4000E-06,-425.0003E-06
+8.5000E-06,+199.9997E-06
+8.6000E-06,-1.0500003E-03
+8.7000E-06,-425.0003E-06
+8.8000E-06,-1.0500003E-03
+8.9000E-06,+824.9996E-06
+9.0000E-06,-1.0500003E-03
+9.1000E-06,-1.0500003E-03
+9.2000E-06,-1.0500003E-03
+9.3000E-06,+199.9997E-06
+9.4000E-06,-425.0003E-06
+9.5000E-06,-425.0003E-06
+9.6000E-06,-1.0500003E-03
+9.7000E-06,-425.0003E-06
+9.8000E-06,-1.0500003E-03
+9.9000E-06,-425.0003E-06
+10.0000E-06,-1.6750003E-03
+10.1000E-06,-425.0003E-06
+10.2000E-06,-1.0500003E-03
+10.3000E-06,-425.0003E-06
+10.4000E-06,-1.0500003E-03
+10.5000E-06,-425.0003E-06
+10.6000E-06,-1.0500003E-03
+10.7000E-06,-425.0003E-06
+10.8000E-06,-1.0500003E-03
+10.9000E-06,-425.0003E-06
+11.0000E-06,-1.0500003E-03
+11.1000E-06,+199.9997E-06
+11.2000E-06,-425.0003E-06
+11.3000E-06,+199.9997E-06
+11.4000E-06,-425.0003E-06
+11.5000E-06,+199.9997E-06
+11.6000E-06,-425.0003E-06
+11.7000E-06,+199.9997E-06
+11.8000E-06,-425.0003E-06
+11.9000E-06,+199.9997E-06
+12.0000E-06,-1.0500003E-03
+12.1000E-06,+199.9997E-06
+12.2000E-06,-425.0003E-06
+12.3000E-06,+199.9997E-06
+12.4000E-06,-425.0003E-06
+12.5000E-06,+199.9997E-06
+12.6000E-06,-425.0003E-06
+12.7000E-06,+199.9997E-06
+12.8000E-06,-425.0003E-06
+12.9000E-06,+199.9997E-06
+13.0000E-06,-1.0500003E-03
+13.1000E-06,+824.9996E-06
+13.2000E-06,-425.0003E-06
+13.3000E-06,+199.9997E-06
+13.4000E-06,-1.0500003E-03
+13.5000E-06,+199.9997E-06
+13.6000E-06,-425.0003E-06
+13.7000E-06,+199.9997E-06
+13.8000E-06,+199.9997E-06
+13.9000E-06,+199.9997E-06
+14.0000E-06,-425.0003E-06
+14.1000E-06,+199.9997E-06
+14.2000E-06,-425.0003E-06
+14.3000E-06,+824.9996E-06
+14.4000E-06,+199.9997E-06
+14.5000E-06,+199.9997E-06
+14.6000E-06,-425.0003E-06
+14.7000E-06,+824.9996E-06
+14.8000E-06,-425.0003E-06
+14.9000E-06,+199.9997E-06
+15.0000E-06,+199.9997E-06
+15.1000E-06,+199.9997E-06
+15.2000E-06,-425.0003E-06
+15.3000E-06,+824.9996E-06
+15.4000E-06,-1.0500003E-03
+15.5000E-06,-425.0003E-06
+15.6000E-06,-425.0003E-06
+15.7000E-06,+199.9997E-06
+15.8000E-06,-425.0003E-06
+15.9000E-06,+199.9997E-06
+16.0000E-06,-1.6750003E-03
+16.1000E-06,+199.9997E-06
+16.2000E-06,-1.0500003E-03
+16.3000E-06,+199.9997E-06
+16.4000E-06,-425.0003E-06
+16.5000E-06,+199.9997E-06
+16.6000E-06,+199.9997E-06
+16.7000E-06,+824.9996E-06
+16.8000E-06,+199.9997E-06
+16.9000E-06,+824.9996E-06
+17.0000E-06,+199.9997E-06
+17.1000E-06,+199.9997E-06
+17.2000E-06,+199.9997E-06
+17.3000E-06,+824.9996E-06
+17.4000E-06,-425.0003E-06
+17.5000E-06,+824.9996E-06
+17.6000E-06,-425.0003E-06
+17.7000E-06,+824.9996E-06
+17.8000E-06,+199.9997E-06
+17.9000E-06,+824.9996E-06
+18.0000E-06,-425.0003E-06
+18.1000E-06,+199.9997E-06
+18.2000E-06,-425.0003E-06
+18.3000E-06,+824.9996E-06
+18.4000E-06,+199.9997E-06
+18.5000E-06,+199.9997E-06
+18.6000E-06,-1.0500003E-03
+18.7000E-06,+199.9997E-06
+18.8000E-06,-1.0500003E-03
+18.9000E-06,+199.9997E-06
+19.0000E-06,-425.0003E-06
+19.1000E-06,+199.9997E-06
+19.2000E-06,-425.0003E-06
+19.3000E-06,+199.9997E-06
+19.4000E-06,-425.0003E-06
+19.5000E-06,+199.9997E-06
+19.6000E-06,-425.0003E-06
+19.7000E-06,+199.9997E-06
+19.8000E-06,-425.0003E-06
+19.9000E-06,+824.9996E-06
+20.0000E-06,-1.0500003E-03
+20.1000E-06,-425.0003E-06
+20.2000E-06,-425.0003E-06
+20.3000E-06,+824.9996E-06
+20.4000E-06,-1.0500003E-03
+20.5000E-06,+199.9997E-06
+20.6000E-06,-425.0003E-06
+20.7000E-06,+824.9996E-06
+20.8000E-06,-425.0003E-06
+20.9000E-06,+199.9997E-06
+21.0000E-06,-425.0003E-06
+21.1000E-06,+199.9997E-06
+21.2000E-06,-425.0003E-06
+21.3000E-06,+199.9997E-06
+21.4000E-06,-425.0003E-06
+21.5000E-06,+199.9997E-06
+21.6000E-06,+199.9997E-06
+21.7000E-06,+824.9996E-06
+21.8000E-06,-425.0003E-06
+21.9000E-06,+824.9996E-06
+22.0000E-06,-425.0003E-06
+22.1000E-06,+824.9996E-06
+22.2000E-06,-425.0003E-06
+22.3000E-06,+824.9996E-06
+22.4000E-06,-425.0003E-06
+22.5000E-06,+199.9997E-06
+22.6000E-06,-425.0003E-06
+22.7000E-06,+199.9997E-06
+22.8000E-06,-425.0003E-06
+22.9000E-06,+199.9997E-06
+23.0000E-06,-425.0003E-06
+23.1000E-06,+199.9997E-06
