x-axis,1
second,Volt
-126.8000E-06,+92.0749976E-03
-126.6000E-06,+92.6999976E-03
-126.4000E-06,+92.6999976E-03
-126.2000E-06,+92.6999976E-03
-126.0000E-06,+92.0749976E-03
-125.8000E-06,+92.0749976E-03
-125.6000E-06,+92.0749976E-03
-125.4000E-06,+92.0749976E-03
-125.2000E-06,+92.0749976E-03
-125.0000E-06,+92.0749976E-03
-124.8000E-06,+92.0749976E-03
-124.6000E-06,+92.6999976E-03
-124.4000E-06,+91.4499976E-03
-124.2000E-06,+92.0749976E-03
-124.0000E-06,+92.6999976E-03
-123.8000E-06,+92.0749976E-03
-123.6000E-06,+92.0749976E-03
-123.4000E-06,+92.6999976E-03
-123.2000E-06,+92.0749976E-03
-123.0000E-06,+92.0749976E-03
-122.8000E-06,+92.6999976E-03
-122.6000E-06,+92.0749976E-03
-122.4000E-06,+92.0749976E-03
-122.2000E-06,+92.0749976E-03
-122.0000E-06,+92.0749976E-03
-121.8000E-06,+92.0749976E-03
-121.6000E-06,+91.4499976E-03
-121.4000E-06,+92.6999976E-03
-121.2000E-06,+92.0749976E-03
-121.0000E-06,+92.0749976E-03
-120.8000E-06,+92.0749976E-03
-120.6000E-06,+91.4499976E-03
-120.4000E-06,+91.4499976E-03
-120.2000E-06,+92.0749976E-03
-120.0000E-06,+92.0749976E-03
-119.8000E-06,+92.0749976E-03
-119.6000E-06,+92.0749976E-03
-119.4000E-06,+92.6999976E-03
-119.2000E-06,+92.0749976E-03
-119.0000E-06,+92.6999976E-03
-118.8000E-06,+92.0749976E-03
-118.6000E-06,+92.0749976E-03
-118.4000E-06,+92.0749976E-03
-118.2000E-06,+92.0749976E-03
-118.0000E-06,+92.0749976E-03
-117.8000E-06,+93.3249976E-03
-117.6000E-06,+92.6999976E-03
-117.4000E-06,+92.0749976E-03
-117.2000E-06,+92.0749976E-03
-117.0000E-06,+92.0749976E-03
-116.8000E-06,+92.0749976E-03
-116.6000E-06,+92.0749976E-03
-116.4000E-06,+92.0749976E-03
-116.2000E-06,+91.4499976E-03
-116.0000E-06,+91.4499976E-03
-115.8000E-06,+91.4499976E-03
-115.6000E-06,+90.8249976E-03
-115.4000E-06,+91.4499976E-03
-115.2000E-06,+91.4499976E-03
-115.0000E-06,+91.4499976E-03
-114.8000E-06,+91.4499976E-03
-114.6000E-06,+91.4499976E-03
-114.4000E-06,+92.0749976E-03
-114.2000E-06,+92.0749976E-03
-114.0000E-06,+92.0749976E-03
-113.8000E-06,+92.0749976E-03
-113.6000E-06,+92.0749976E-03
-113.4000E-06,+92.6999976E-03
-113.2000E-06,+92.0749976E-03
-113.0000E-06,+92.0749976E-03
-112.8000E-06,+92.0749976E-03
-112.6000E-06,+92.0749976E-03
-112.4000E-06,+92.0749976E-03
-112.2000E-06,+91.4499976E-03
-112.0000E-06,+92.0749976E-03
-111.8000E-06,+91.4499976E-03
-111.6000E-06,+91.4499976E-03
-111.4000E-06,+90.8249976E-03
-111.2000E-06,+91.4499976E-03
-111.0000E-06,+91.4499976E-03
-110.8000E-06,+90.8249976E-03
-110.6000E-06,+90.8249976E-03
-110.4000E-06,+90.8249976E-03
-110.2000E-06,+91.4499976E-03
-110.0000E-06,+90.8249976E-03
-109.8000E-06,+91.4499976E-03
-109.6000E-06,+90.8249976E-03
-109.4000E-06,+90.8249976E-03
-109.2000E-06,+91.4499976E-03
-109.0000E-06,+90.8249976E-03
-108.8000E-06,+90.1999976E-03
-108.6000E-06,+90.8249976E-03
-108.4000E-06,+91.4499976E-03
-108.2000E-06,+92.0749976E-03
-108.0000E-06,+91.4499976E-03
-107.8000E-06,+91.4499976E-03
-107.6000E-06,+92.0749976E-03
-107.4000E-06,+92.0749976E-03
-107.2000E-06,+90.8249976E-03
-107.0000E-06,+90.8249976E-03
-106.8000E-06,+90.8249976E-03
-106.6000E-06,+91.4499976E-03
-106.4000E-06,+91.4499976E-03
-106.2000E-06,+90.1999976E-03
-106.0000E-06,+90.8249976E-03
-105.8000E-06,+91.4499976E-03
-105.6000E-06,+90.8249976E-03
-105.4000E-06,+90.8249976E-03
-105.2000E-06,+91.4499976E-03
-105.0000E-06,+91.4499976E-03
-104.8000E-06,+91.4499976E-03
-104.6000E-06,+91.4499976E-03
-104.4000E-06,+91.4499976E-03
-104.2000E-06,+91.4499976E-03
-104.0000E-06,+90.8249976E-03
-103.8000E-06,+91.4499976E-03
-103.6000E-06,+90.8249976E-03
-103.4000E-06,+91.4499976E-03
-103.2000E-06,+91.4499976E-03
-103.0000E-06,+92.0749976E-03
-102.8000E-06,+91.4499976E-03
-102.6000E-06,+90.8249976E-03
-102.4000E-06,+90.8249976E-03
-102.2000E-06,+90.8249976E-03
-102.0000E-06,+90.8249976E-03
-101.8000E-06,+90.8249976E-03
-101.6000E-06,+90.8249976E-03
-101.4000E-06,+90.1999976E-03
-101.2000E-06,+90.8249976E-03
-101.0000E-06,+90.8249976E-03
-100.8000E-06,+90.8249976E-03
-100.6000E-06,+90.8249976E-03
-100.4000E-06,+90.8249976E-03
-100.2000E-06,+90.8249976E-03
-100.0000E-06,+90.8249976E-03
-99.8000E-06,+91.4499976E-03
-99.6000E-06,+90.8249976E-03
-99.4000E-06,+90.8249976E-03
-99.2000E-06,+91.4499976E-03
-99.0000E-06,+90.8249976E-03
-98.8000E-06,+90.8249976E-03
-98.6000E-06,+90.8249976E-03
-98.4000E-06,+90.8249976E-03
-98.2000E-06,+90.8249976E-03
-98.0000E-06,+90.1999976E-03
-97.8000E-06,+90.8249976E-03
-97.6000E-06,+90.1999976E-03
-97.4000E-06,+90.8249976E-03
-97.2000E-06,+89.5749977E-03
-97.0000E-06,+90.1999976E-03
-96.8000E-06,+89.5749977E-03
-96.6000E-06,+89.5749977E-03
-96.4000E-06,+89.5749977E-03
-96.2000E-06,+88.9499977E-03
-96.0000E-06,+90.1999976E-03
-95.8000E-06,+89.5749977E-03
-95.6000E-06,+90.1999976E-03
-95.4000E-06,+89.5749977E-03
-95.2000E-06,+89.5749977E-03
-95.0000E-06,+90.1999976E-03
-94.8000E-06,+89.5749977E-03
-94.6000E-06,+89.5749977E-03
-94.4000E-06,+90.1999976E-03
-94.2000E-06,+90.1999976E-03
-94.0000E-06,+89.5749977E-03
-93.8000E-06,+90.1999976E-03
-93.6000E-06,+90.1999976E-03
-93.4000E-06,+90.1999976E-03
-93.2000E-06,+90.1999976E-03
-93.0000E-06,+89.5749977E-03
-92.8000E-06,+89.5749977E-03
-92.6000E-06,+88.9499977E-03
-92.4000E-06,+88.9499977E-03
-92.2000E-06,+89.5749977E-03
-92.0000E-06,+89.5749977E-03
-91.8000E-06,+88.3249977E-03
-91.6000E-06,+88.9499977E-03
-91.4000E-06,+89.5749977E-03
-91.2000E-06,+89.5749977E-03
-91.0000E-06,+88.9499977E-03
-90.8000E-06,+88.3249977E-03
-90.6000E-06,+88.3249977E-03
-90.4000E-06,+89.5749977E-03
-90.2000E-06,+89.5749977E-03
-90.0000E-06,+88.9499977E-03
-89.8000E-06,+89.5749977E-03
-89.6000E-06,+88.9499977E-03
-89.4000E-06,+90.1999976E-03
-89.2000E-06,+89.5749977E-03
-89.0000E-06,+89.5749977E-03
-88.8000E-06,+89.5749977E-03
-88.6000E-06,+89.5749977E-03
-88.4000E-06,+89.5749977E-03
-88.2000E-06,+89.5749977E-03
-88.0000E-06,+88.9499977E-03
-87.8000E-06,+88.9499977E-03
-87.6000E-06,+88.3249977E-03
-87.4000E-06,+88.9499977E-03
-87.2000E-06,+88.3249977E-03
-87.0000E-06,+88.9499977E-03
-86.8000E-06,+89.5749977E-03
-86.6000E-06,+88.9499977E-03
-86.4000E-06,+88.3249977E-03
-86.2000E-06,+88.3249977E-03
-86.0000E-06,+88.3249977E-03
-85.8000E-06,+88.9499977E-03
-85.6000E-06,+88.3249977E-03
-85.4000E-06,+88.9499977E-03
-85.2000E-06,+88.9499977E-03
-85.0000E-06,+88.3249977E-03
-84.8000E-06,+88.3249977E-03
-84.6000E-06,+87.6999977E-03
-84.4000E-06,+88.9499977E-03
-84.2000E-06,+88.3249977E-03
-84.0000E-06,+88.9499977E-03
-83.8000E-06,+88.9499977E-03
-83.6000E-06,+88.3249977E-03
-83.4000E-06,+88.9499977E-03
-83.2000E-06,+87.6999977E-03
-83.0000E-06,+87.6999977E-03
-82.8000E-06,+87.6999977E-03
-82.6000E-06,+88.3249977E-03
-82.4000E-06,+87.6999977E-03
-82.2000E-06,+88.3249977E-03
-82.0000E-06,+87.6999977E-03
-81.8000E-06,+87.0749977E-03
-81.6000E-06,+87.0749977E-03
-81.4000E-06,+87.0749977E-03
-81.2000E-06,+87.6999977E-03
-81.0000E-06,+87.6999977E-03
-80.8000E-06,+87.6999977E-03
-80.6000E-06,+87.6999977E-03
-80.4000E-06,+87.6999977E-03
-80.2000E-06,+87.6999977E-03
-80.0000E-06,+87.0749977E-03
-79.8000E-06,+87.6999977E-03
-79.6000E-06,+87.6999977E-03
-79.4000E-06,+87.6999977E-03
-79.2000E-06,+87.6999977E-03
-79.0000E-06,+87.6999977E-03
-78.8000E-06,+88.3249977E-03
-78.6000E-06,+87.6999977E-03
-78.4000E-06,+87.0749977E-03
-78.2000E-06,+87.0749977E-03
-78.0000E-06,+87.0749977E-03
-77.8000E-06,+86.4499977E-03
-77.6000E-06,+86.4499977E-03
-77.4000E-06,+86.4499977E-03
-77.2000E-06,+86.4499977E-03
-77.0000E-06,+87.0749977E-03
-76.8000E-06,+86.4499977E-03
-76.6000E-06,+86.4499977E-03
-76.4000E-06,+86.4499977E-03
-76.2000E-06,+86.4499977E-03
-76.0000E-06,+87.0749977E-03
-75.8000E-06,+86.4499977E-03
-75.6000E-06,+86.4499977E-03
-75.4000E-06,+86.4499977E-03
-75.2000E-06,+87.0749977E-03
-75.0000E-06,+86.4499977E-03
-74.8000E-06,+86.4499977E-03
-74.6000E-06,+86.4499977E-03
-74.4000E-06,+86.4499977E-03
-74.2000E-06,+87.6999977E-03
-74.0000E-06,+86.4499977E-03
-73.8000E-06,+86.4499977E-03
-73.6000E-06,+86.4499977E-03
-73.4000E-06,+86.4499977E-03
-73.2000E-06,+85.8249977E-03
-73.0000E-06,+85.8249977E-03
-72.8000E-06,+85.8249977E-03
-72.6000E-06,+85.1999978E-03
-72.4000E-06,+86.4499977E-03
-72.2000E-06,+85.1999978E-03
-72.0000E-06,+85.1999978E-03
-71.8000E-06,+85.8249977E-03
-71.6000E-06,+85.8249977E-03
-71.4000E-06,+85.1999978E-03
-71.2000E-06,+85.1999978E-03
-71.0000E-06,+84.5749978E-03
-70.8000E-06,+84.5749978E-03
-70.6000E-06,+85.1999978E-03
-70.4000E-06,+85.1999978E-03
-70.2000E-06,+85.1999978E-03
-70.0000E-06,+84.5749978E-03
-69.8000E-06,+85.8249977E-03
-69.6000E-06,+85.1999978E-03
-69.4000E-06,+85.1999978E-03
-69.2000E-06,+85.8249977E-03
-69.0000E-06,+85.1999978E-03
-68.8000E-06,+84.5749978E-03
-68.6000E-06,+85.1999978E-03
-68.4000E-06,+85.8249977E-03
-68.2000E-06,+85.1999978E-03
-68.0000E-06,+84.5749978E-03
-67.8000E-06,+84.5749978E-03
-67.6000E-06,+83.9499978E-03
-67.4000E-06,+84.5749978E-03
-67.2000E-06,+83.9499978E-03
-67.0000E-06,+83.9499978E-03
-66.8000E-06,+83.3249978E-03
-66.6000E-06,+83.3249978E-03
-66.4000E-06,+82.6999978E-03
-66.2000E-06,+83.9499978E-03
-66.0000E-06,+83.3249978E-03
-65.8000E-06,+83.3249978E-03
-65.6000E-06,+83.3249978E-03
-65.4000E-06,+83.3249978E-03
-65.2000E-06,+83.3249978E-03
-65.0000E-06,+83.3249978E-03
-64.8000E-06,+83.3249978E-03
-64.6000E-06,+83.3249978E-03
-64.4000E-06,+83.3249978E-03
-64.2000E-06,+83.3249978E-03
-64.0000E-06,+83.3249978E-03
-63.8000E-06,+82.6999978E-03
-63.6000E-06,+82.6999978E-03
-63.4000E-06,+82.6999978E-03
-63.2000E-06,+83.3249978E-03
-63.0000E-06,+82.6999978E-03
-62.8000E-06,+83.3249978E-03
-62.6000E-06,+82.6999978E-03
-62.4000E-06,+81.4499978E-03
-62.2000E-06,+82.6999978E-03
-62.0000E-06,+81.4499978E-03
-61.8000E-06,+81.4499978E-03
-61.6000E-06,+81.4499978E-03
-61.4000E-06,+80.1999979E-03
-61.2000E-06,+82.0749978E-03
-61.0000E-06,+80.8249979E-03
-60.8000E-06,+80.8249979E-03
-60.6000E-06,+80.8249979E-03
-60.4000E-06,+80.8249979E-03
-60.2000E-06,+80.1999979E-03
-60.0000E-06,+80.8249979E-03
-59.8000E-06,+80.8249979E-03
-59.6000E-06,+80.1999979E-03
-59.4000E-06,+80.1999979E-03
-59.2000E-06,+80.1999979E-03
-59.0000E-06,+80.8249979E-03
-58.8000E-06,+80.8249979E-03
-58.6000E-06,+80.8249979E-03
-58.4000E-06,+80.8249979E-03
-58.2000E-06,+80.8249979E-03
-58.0000E-06,+80.1999979E-03
-57.8000E-06,+80.1999979E-03
-57.6000E-06,+80.1999979E-03
-57.4000E-06,+80.1999979E-03
-57.2000E-06,+79.5749979E-03
-57.0000E-06,+80.1999979E-03
-56.8000E-06,+80.1999979E-03
-56.6000E-06,+80.1999979E-03
-56.4000E-06,+80.1999979E-03
-56.2000E-06,+80.1999979E-03
-56.0000E-06,+79.5749979E-03
-55.8000E-06,+78.9499979E-03
-55.6000E-06,+79.5749979E-03
-55.4000E-06,+78.9499979E-03
-55.2000E-06,+79.5749979E-03
-55.0000E-06,+78.9499979E-03
-54.8000E-06,+78.9499979E-03
-54.6000E-06,+78.3249979E-03
-54.4000E-06,+78.3249979E-03
-54.2000E-06,+78.3249979E-03
-54.0000E-06,+78.3249979E-03
-53.8000E-06,+78.9499979E-03
-53.6000E-06,+78.9499979E-03
-53.4000E-06,+78.3249979E-03
-53.2000E-06,+78.3249979E-03
-53.0000E-06,+78.3249979E-03
-52.8000E-06,+78.3249979E-03
-52.6000E-06,+78.3249979E-03
-52.4000E-06,+78.3249979E-03
-52.2000E-06,+77.6999979E-03
-52.0000E-06,+77.6999979E-03
-51.8000E-06,+77.0749979E-03
-51.6000E-06,+77.6999979E-03
-51.4000E-06,+77.0749979E-03
-51.2000E-06,+77.6999979E-03
-51.0000E-06,+76.4499980E-03
-50.8000E-06,+77.0749979E-03
-50.6000E-06,+76.4499980E-03
-50.4000E-06,+76.4499980E-03
-50.2000E-06,+76.4499980E-03
-50.0000E-06,+75.8249980E-03
-49.8000E-06,+75.8249980E-03
-49.6000E-06,+75.8249980E-03
-49.4000E-06,+76.4499980E-03
-49.2000E-06,+77.0749979E-03
-49.0000E-06,+75.8249980E-03
-48.8000E-06,+75.1999980E-03
-48.6000E-06,+75.8249980E-03
-48.4000E-06,+75.1999980E-03
-48.2000E-06,+75.8249980E-03
-48.0000E-06,+75.8249980E-03
-47.8000E-06,+75.1999980E-03
-47.6000E-06,+74.5749980E-03
-47.4000E-06,+74.5749980E-03
-47.2000E-06,+73.9499980E-03
-47.0000E-06,+74.5749980E-03
-46.8000E-06,+73.9499980E-03
-46.6000E-06,+73.3249980E-03
-46.4000E-06,+73.3249980E-03
-46.2000E-06,+73.3249980E-03
-46.0000E-06,+73.9499980E-03
-45.8000E-06,+73.9499980E-03
-45.6000E-06,+73.3249980E-03
-45.4000E-06,+73.3249980E-03
-45.2000E-06,+72.0749981E-03
-45.0000E-06,+72.0749981E-03
-44.8000E-06,+72.6999980E-03
-44.6000E-06,+72.6999980E-03
-44.4000E-06,+73.3249980E-03
-44.2000E-06,+73.3249980E-03
-44.0000E-06,+72.6999980E-03
-43.8000E-06,+72.6999980E-03
-43.6000E-06,+72.6999980E-03
-43.4000E-06,+72.0749981E-03
-43.2000E-06,+72.0749981E-03
-43.0000E-06,+72.0749981E-03
-42.8000E-06,+72.0749981E-03
-42.6000E-06,+70.8249981E-03
-42.4000E-06,+70.1999981E-03
-42.2000E-06,+70.1999981E-03
-42.0000E-06,+70.1999981E-03
-41.8000E-06,+70.8249981E-03
-41.6000E-06,+70.1999981E-03
-41.4000E-06,+70.1999981E-03
-41.2000E-06,+70.8249981E-03
-41.0000E-06,+70.1999981E-03
-40.8000E-06,+70.1999981E-03
-40.6000E-06,+69.5749981E-03
-40.4000E-06,+70.1999981E-03
-40.2000E-06,+70.1999981E-03
-40.0000E-06,+70.1999981E-03
-39.8000E-06,+70.1999981E-03
-39.6000E-06,+68.9499981E-03
-39.4000E-06,+69.5749981E-03
-39.2000E-06,+68.9499981E-03
-39.0000E-06,+69.5749981E-03
-38.8000E-06,+68.3249981E-03
-38.6000E-06,+66.4499982E-03
-38.4000E-06,+65.8249982E-03
-38.2000E-06,+66.4499982E-03
-38.0000E-06,+65.8249982E-03
-37.8000E-06,+66.4499982E-03
-37.6000E-06,+66.4499982E-03
-37.4000E-06,+65.1999982E-03
-37.2000E-06,+65.8249982E-03
-37.0000E-06,+67.0749982E-03
-36.8000E-06,+67.0749982E-03
-36.6000E-06,+67.6999982E-03
-36.4000E-06,+67.0749982E-03
-36.2000E-06,+67.0749982E-03
-36.0000E-06,+66.4499982E-03
-35.8000E-06,+65.8249982E-03
-35.6000E-06,+65.8249982E-03
-35.4000E-06,+65.8249982E-03
-35.2000E-06,+65.8249982E-03
-35.0000E-06,+64.5749982E-03
-34.8000E-06,+64.5749982E-03
-34.6000E-06,+64.5749982E-03
-34.4000E-06,+63.9499982E-03
-34.2000E-06,+63.9499982E-03
-34.0000E-06,+64.5749982E-03
-33.8000E-06,+64.5749982E-03
-33.6000E-06,+65.8249982E-03
-33.4000E-06,+65.1999982E-03
-33.2000E-06,+64.5749982E-03
-33.0000E-06,+64.5749982E-03
-32.8000E-06,+65.1999982E-03
-32.6000E-06,+64.5749982E-03
-32.4000E-06,+63.9499982E-03
-32.2000E-06,+62.6999983E-03
-32.0000E-06,+62.0749983E-03
-31.8000E-06,+62.0749983E-03
-31.6000E-06,+60.8249983E-03
-31.4000E-06,+60.8249983E-03
-31.2000E-06,+61.4499983E-03
-31.0000E-06,+62.0749983E-03
-30.8000E-06,+61.4499983E-03
-30.6000E-06,+61.4499983E-03
-30.4000E-06,+62.0749983E-03
-30.2000E-06,+61.4499983E-03
-30.0000E-06,+61.4499983E-03
-29.8000E-06,+62.0749983E-03
-29.6000E-06,+62.6999983E-03
-29.4000E-06,+61.4499983E-03
-29.2000E-06,+60.8249983E-03
-29.0000E-06,+59.5749983E-03
-28.8000E-06,+58.9499983E-03
-28.6000E-06,+58.3249984E-03
-28.4000E-06,+57.6999984E-03
-28.2000E-06,+57.0749984E-03
-28.0000E-06,+57.0749984E-03
-27.8000E-06,+57.0749984E-03
-27.6000E-06,+57.6999984E-03
-27.4000E-06,+57.0749984E-03
-27.2000E-06,+57.0749984E-03
-27.0000E-06,+57.0749984E-03
-26.8000E-06,+57.6999984E-03
-26.6000E-06,+57.6999984E-03
-26.4000E-06,+56.4499984E-03
-26.2000E-06,+57.0749984E-03
-26.0000E-06,+57.6999984E-03
-25.8000E-06,+57.6999984E-03
-25.6000E-06,+57.6999984E-03
-25.4000E-06,+56.4499984E-03
-25.2000E-06,+57.0749984E-03
-25.0000E-06,+58.3249984E-03
-24.8000E-06,+57.6999984E-03
-24.6000E-06,+57.6999984E-03
-24.4000E-06,+56.4499984E-03
-24.2000E-06,+56.4499984E-03
-24.0000E-06,+57.0749984E-03
-23.8000E-06,+56.4499984E-03
-23.6000E-06,+55.8249984E-03
-23.4000E-06,+55.8249984E-03
-23.2000E-06,+55.8249984E-03
-23.0000E-06,+54.5749984E-03
-22.8000E-06,+53.3249985E-03
-22.6000E-06,+53.3249985E-03
-22.4000E-06,+53.3249985E-03
-22.2000E-06,+53.3249985E-03
-22.0000E-06,+52.6999985E-03
-21.8000E-06,+53.3249985E-03
-21.6000E-06,+52.0749985E-03
-21.4000E-06,+51.4499985E-03
-21.2000E-06,+52.0749985E-03
-21.0000E-06,+52.6999985E-03
-20.8000E-06,+52.6999985E-03
-20.6000E-06,+52.6999985E-03
-20.4000E-06,+52.0749985E-03
-20.2000E-06,+52.0749985E-03
-20.0000E-06,+52.0749985E-03
-19.8000E-06,+52.0749985E-03
-19.6000E-06,+51.4499985E-03
-19.4000E-06,+50.1999985E-03
-19.2000E-06,+49.5749986E-03
-19.0000E-06,+48.9499986E-03
-18.8000E-06,+49.5749986E-03
-18.6000E-06,+48.9499986E-03
-18.4000E-06,+48.9499986E-03
-18.2000E-06,+48.3249986E-03
-18.0000E-06,+48.3249986E-03
-17.8000E-06,+48.3249986E-03
-17.6000E-06,+48.3249986E-03
-17.4000E-06,+47.6999986E-03
-17.2000E-06,+47.0749986E-03
-17.0000E-06,+47.0749986E-03
-16.8000E-06,+45.8249986E-03
-16.6000E-06,+45.1999987E-03
-16.4000E-06,+42.6999987E-03
-16.2000E-06,+42.0749987E-03
-16.0000E-06,+40.1999988E-03
-15.8000E-06,+40.1999988E-03
-15.6000E-06,+39.5749988E-03
-15.4000E-06,+39.5749988E-03
-15.2000E-06,+40.1999988E-03
-15.0000E-06,+39.5749988E-03
-14.8000E-06,+39.5749988E-03
-14.6000E-06,+40.1999988E-03
-14.4000E-06,+39.5749988E-03
-14.2000E-06,+38.9499988E-03
-14.0000E-06,+38.9499988E-03
-13.8000E-06,+38.3249988E-03
-13.6000E-06,+38.9499988E-03
-13.4000E-06,+39.5749988E-03
-13.2000E-06,+39.5749988E-03
-13.0000E-06,+39.5749988E-03
-12.8000E-06,+39.5749988E-03
-12.6000E-06,+38.9499988E-03
-12.4000E-06,+39.5749988E-03
-12.2000E-06,+38.9499988E-03
-12.0000E-06,+37.0749988E-03
-11.8000E-06,+35.1999989E-03
-11.6000E-06,+33.9499989E-03
-11.4000E-06,+32.6999989E-03
-11.2000E-06,+32.6999989E-03
-11.0000E-06,+32.0749989E-03
-10.8000E-06,+31.4499990E-03
-10.6000E-06,+30.8249990E-03
-10.4000E-06,+30.1999990E-03
-10.2000E-06,+30.8249990E-03
-10.0000E-06,+29.5749990E-03
-9.8000E-06,+28.3249990E-03
-9.6000E-06,+25.1999991E-03
-9.4000E-06,+24.5749991E-03
-9.2000E-06,+23.9499991E-03
-9.0000E-06,+22.6999992E-03
-8.8000E-06,+18.3249993E-03
-8.6000E-06,+15.8249993E-03
-8.4000E-06,+15.8249993E-03
-8.2000E-06,+15.8249993E-03
-8.0000E-06,+15.8249993E-03
-7.8000E-06,+16.4499993E-03
-7.6000E-06,+15.1999993E-03
-7.4000E-06,+15.1999993E-03
-7.2000E-06,+13.9499994E-03
-7.0000E-06,+13.3249994E-03
-6.8000E-06,+11.4499994E-03
-6.6000E-06,+11.4499994E-03
-6.4000E-06,+10.8249994E-03
-6.2000E-06,+10.8249994E-03
-6.0000E-06,+10.8249994E-03
-5.8000E-06,+10.8249994E-03
-5.6000E-06,+10.8249994E-03
-5.4000E-06,+10.8249994E-03
-5.2000E-06,+10.1999994E-03
-5.0000E-06,+9.5749995E-03
-4.8000E-06,+8.9499995E-03
-4.6000E-06,+5.8249995E-03
-4.4000E-06,+5.1999995E-03
-4.2000E-06,+3.9499996E-03
-4.0000E-06,+3.3249996E-03
-3.8000E-06,+3.9499996E-03
-3.6000E-06,+2.6999996E-03
-3.4000E-06,+2.6999996E-03
-3.2000E-06,+2.6999996E-03
-3.0000E-06,+2.6999996E-03
-2.8000E-06,+2.6999996E-03
-2.6000E-06,+3.3249996E-03
-2.4000E-06,+2.0749996E-03
-2.2000E-06,+1.4499996E-03
-2.0000E-06,+1.4499996E-03
-1.8000E-06,+1.4499996E-03
-1.6000E-06,+1.4499996E-03
-1.4000E-06,+1.4499996E-03
-1.2000E-06,+1.4499996E-03
-1.0000E-06,+1.4499996E-03
-800.0E-09,+1.4499996E-03
-600.0E-09,+2.0749996E-03
-400.0E-09,+1.4499996E-03
-200.0E-09,+1.4499996E-03
+0.0E+00,+824.9996E-06
+200.0E-09,+824.9996E-06
+400.0E-09,+824.9996E-06
+600.0E-09,+199.9997E-06
+800.0E-09,+824.9996E-06
+1.0000E-06,+824.9996E-06
+1.2000E-06,-425.0003E-06
+1.4000E-06,-425.0003E-06
+1.6000E-06,-425.0003E-06
+1.8000E-06,-425.0003E-06
+2.0000E-06,-1.0500003E-03
+2.2000E-06,-1.0500003E-03
+2.4000E-06,-425.0003E-06
+2.6000E-06,-425.0003E-06
+2.8000E-06,-425.0003E-06
+3.0000E-06,-425.0003E-06
+3.2000E-06,-1.0500003E-03
+3.4000E-06,-425.0003E-06
+3.6000E-06,-425.0003E-06
+3.8000E-06,-425.0003E-06
+4.0000E-06,-1.0500003E-03
+4.2000E-06,-425.0003E-06
+4.4000E-06,-425.0003E-06
+4.6000E-06,-425.0003E-06
+4.8000E-06,-425.0003E-06
+5.0000E-06,-425.0003E-06
+5.2000E-06,-1.6750003E-03
+5.4000E-06,-425.0003E-06
+5.6000E-06,-1.0500003E-03
+5.8000E-06,-425.0003E-06
+6.0000E-06,-425.0003E-06
+6.2000E-06,-1.0500003E-03
+6.4000E-06,-1.0500003E-03
+6.6000E-06,-1.0500003E-03
+6.8000E-06,-1.0500003E-03
+7.0000E-06,-1.0500003E-03
+7.2000E-06,-1.0500003E-03
+7.4000E-06,-2.3000003E-03
+7.6000E-06,-1.0500003E-03
+7.8000E-06,-425.0003E-06
+8.0000E-06,-1.6750003E-03
+8.2000E-06,-1.6750003E-03
+8.4000E-06,-1.0500003E-03
+8.6000E-06,-1.6750003E-03
+8.8000E-06,-1.0500003E-03
+9.0000E-06,-425.0003E-06
+9.2000E-06,-1.6750003E-03
+9.4000E-06,-1.0500003E-03
+9.6000E-06,-1.6750003E-03
+9.8000E-06,-1.0500003E-03
+10.0000E-06,-425.0003E-06
+10.2000E-06,-1.6750003E-03
+10.4000E-06,-1.6750003E-03
+10.6000E-06,-2.3000003E-03
+10.8000E-06,-1.6750003E-03
+11.0000E-06,-1.0500003E-03
+11.2000E-06,-1.0500003E-03
+11.4000E-06,-1.6750003E-03
+11.6000E-06,-425.0003E-06
+11.8000E-06,-1.0500003E-03
+12.0000E-06,-1.6750003E-03
+12.2000E-06,-2.3000003E-03
+12.4000E-06,-1.6750003E-03
+12.6000E-06,-2.3000003E-03
+12.8000E-06,-2.3000003E-03
+13.0000E-06,-2.3000003E-03
+13.2000E-06,-1.0500003E-03
+13.4000E-06,-1.0500003E-03
+13.6000E-06,-1.6750003E-03
+13.8000E-06,-1.0500003E-03
+14.0000E-06,-1.0500003E-03
+14.2000E-06,-1.0500003E-03
+14.4000E-06,-425.0003E-06
+14.6000E-06,-1.6750003E-03
+14.8000E-06,-1.0500003E-03
+15.0000E-06,-1.0500003E-03
+15.2000E-06,-1.6750003E-03
+15.4000E-06,-1.0500003E-03
+15.6000E-06,-425.0003E-06
+15.8000E-06,-1.0500003E-03
+16.0000E-06,-1.0500003E-03
+16.2000E-06,-1.0500003E-03
+16.4000E-06,-1.0500003E-03
+16.6000E-06,-425.0003E-06
+16.8000E-06,-425.0003E-06
+17.0000E-06,-425.0003E-06
+17.2000E-06,-1.0500003E-03
+17.4000E-06,-1.0500003E-03
+17.6000E-06,-1.0500003E-03
+17.8000E-06,-1.6750003E-03
+18.0000E-06,-425.0003E-06
+18.2000E-06,-425.0003E-06
+18.4000E-06,-1.6750003E-03
+18.6000E-06,-425.0003E-06
+18.8000E-06,-1.0500003E-03
+19.0000E-06,-425.0003E-06
+19.2000E-06,-425.0003E-06
+19.4000E-06,-1.0500003E-03
+19.6000E-06,-1.0500003E-03
+19.8000E-06,-1.6750003E-03
+20.0000E-06,-1.0500003E-03
+20.2000E-06,-1.0500003E-03
+20.4000E-06,-425.0003E-06
+20.6000E-06,-1.0500003E-03
+20.8000E-06,-1.0500003E-03
+21.0000E-06,-425.0003E-06
+21.2000E-06,-1.6750003E-03
+21.4000E-06,-1.0500003E-03
+21.6000E-06,-1.0500003E-03
+21.8000E-06,-1.0500003E-03
+22.0000E-06,-1.0500003E-03
+22.2000E-06,-425.0003E-06
+22.4000E-06,-1.0500003E-03
+22.6000E-06,-1.0500003E-03
+22.8000E-06,-1.0500003E-03
+23.0000E-06,-1.0500003E-03
+23.2000E-06,-425.0003E-06
+23.4000E-06,-1.0500003E-03
+23.6000E-06,-425.0003E-06
+23.8000E-06,-425.0003E-06
+24.0000E-06,-425.0003E-06
+24.2000E-06,-425.0003E-06
+24.4000E-06,-1.0500003E-03
+24.6000E-06,-1.0500003E-03
+24.8000E-06,-1.0500003E-03
+25.0000E-06,+199.9997E-06
+25.2000E-06,-425.0003E-06
+25.4000E-06,-425.0003E-06
+25.6000E-06,-425.0003E-06
+25.8000E-06,-1.0500003E-03
+26.0000E-06,-1.0500003E-03
+26.2000E-06,-1.0500003E-03
+26.4000E-06,-1.0500003E-03
+26.6000E-06,-1.6750003E-03
+26.8000E-06,-1.0500003E-03
+27.0000E-06,-1.6750003E-03
+27.2000E-06,-1.6750003E-03
+27.4000E-06,-1.6750003E-03
+27.6000E-06,-1.0500003E-03
+27.8000E-06,-1.6750003E-03
+28.0000E-06,-2.3000003E-03
+28.2000E-06,-1.6750003E-03
+28.4000E-06,-1.0500003E-03
+28.6000E-06,-425.0003E-06
+28.8000E-06,-425.0003E-06
+29.0000E-06,-1.0500003E-03
+29.2000E-06,-1.0500003E-03
+29.4000E-06,-425.0003E-06
+29.6000E-06,-425.0003E-06
+29.8000E-06,-425.0003E-06
+30.0000E-06,-425.0003E-06
+30.2000E-06,-425.0003E-06
+30.4000E-06,-1.0500003E-03
+30.6000E-06,-425.0003E-06
+30.8000E-06,-425.0003E-06
+31.0000E-06,-1.0500003E-03
+31.2000E-06,-1.0500003E-03
+31.4000E-06,-1.0500003E-03
+31.6000E-06,-1.0500003E-03
+31.8000E-06,-1.0500003E-03
+32.0000E-06,-1.0500003E-03
+32.2000E-06,-425.0003E-06
+32.4000E-06,-1.0500003E-03
+32.6000E-06,-1.0500003E-03
+32.8000E-06,-425.0003E-06
+33.0000E-06,-1.0500003E-03
+33.2000E-06,-425.0003E-06
+33.4000E-06,-425.0003E-06
+33.6000E-06,-425.0003E-06
+33.8000E-06,-1.0500003E-03
+34.0000E-06,-425.0003E-06
+34.2000E-06,-1.0500003E-03
+34.4000E-06,-1.6750003E-03
+34.6000E-06,-1.6750003E-03
+34.8000E-06,-1.6750003E-03
+35.0000E-06,-425.0003E-06
+35.2000E-06,-1.0500003E-03
+35.4000E-06,-1.0500003E-03
+35.6000E-06,-1.0500003E-03
+35.8000E-06,-425.0003E-06
+36.0000E-06,-1.0500003E-03
+36.2000E-06,-425.0003E-06
+36.4000E-06,-1.0500003E-03
+36.6000E-06,-1.0500003E-03
+36.8000E-06,-1.0500003E-03
+37.0000E-06,-1.6750003E-03
+37.2000E-06,-1.0500003E-03
+37.4000E-06,-1.6750003E-03
+37.6000E-06,-1.6750003E-03
+37.8000E-06,-1.6750003E-03
+38.0000E-06,-1.0500003E-03
+38.2000E-06,-1.0500003E-03
+38.4000E-06,-1.0500003E-03
+38.6000E-06,-1.0500003E-03
+38.8000E-06,-1.0500003E-03
+39.0000E-06,-1.6750003E-03
+39.2000E-06,-1.0500003E-03
+39.4000E-06,-1.6750003E-03
+39.6000E-06,-1.0500003E-03
+39.8000E-06,-1.0500003E-03
+40.0000E-06,-1.6750003E-03
+40.2000E-06,-425.0003E-06
+40.4000E-06,-1.6750003E-03
+40.6000E-06,-2.3000003E-03
+40.8000E-06,-1.6750003E-03
+41.0000E-06,-2.3000003E-03
+41.2000E-06,-1.6750003E-03
+41.4000E-06,-1.6750003E-03
+41.6000E-06,-1.6750003E-03
+41.8000E-06,-1.6750003E-03
+42.0000E-06,-1.6750003E-03
+42.2000E-06,-1.6750003E-03
+42.4000E-06,-1.6750003E-03
+42.6000E-06,-1.6750003E-03
+42.8000E-06,-1.6750003E-03
+43.0000E-06,-1.0500003E-03
+43.2000E-06,-2.3000003E-03
+43.4000E-06,-1.0500003E-03
+43.6000E-06,-1.6750003E-03
+43.8000E-06,-1.6750003E-03
+44.0000E-06,-1.0500003E-03
+44.2000E-06,-1.6750003E-03
+44.4000E-06,-1.6750003E-03
+44.6000E-06,-425.0003E-06
+44.8000E-06,-425.0003E-06
+45.0000E-06,-1.6750003E-03
+45.2000E-06,-1.6750003E-03
+45.4000E-06,-1.6750003E-03
+45.6000E-06,-2.3000003E-03
+45.8000E-06,-1.0500003E-03
+46.0000E-06,-1.6750003E-03
+46.2000E-06,-1.6750003E-03
+46.4000E-06,-2.3000003E-03
+46.6000E-06,-1.6750003E-03
+46.8000E-06,-1.6750003E-03
+47.0000E-06,-1.0500003E-03
+47.2000E-06,-2.3000003E-03
+47.4000E-06,-2.3000003E-03
+47.6000E-06,-2.9250003E-03
+47.8000E-06,-1.6750003E-03
+48.0000E-06,-2.3000003E-03
+48.2000E-06,-1.0500003E-03
+48.4000E-06,-1.0500003E-03
+48.6000E-06,-1.0500003E-03
+48.8000E-06,-1.6750003E-03
+49.0000E-06,-1.0500003E-03
+49.2000E-06,-1.0500003E-03
+49.4000E-06,-2.3000003E-03
+49.6000E-06,-1.6750003E-03
+49.8000E-06,-1.6750003E-03
+50.0000E-06,-2.3000003E-03
+50.2000E-06,-1.6750003E-03
+50.4000E-06,-1.6750003E-03
+50.6000E-06,-1.6750003E-03
+50.8000E-06,-1.6750003E-03
+51.0000E-06,-1.6750003E-03
+51.2000E-06,-2.3000003E-03
+51.4000E-06,-1.6750003E-03
+51.6000E-06,-2.3000003E-03
+51.8000E-06,-2.3000003E-03
+52.0000E-06,-2.3000003E-03
+52.2000E-06,-2.3000003E-03
+52.4000E-06,-1.6750003E-03
+52.6000E-06,-1.6750003E-03
+52.8000E-06,-1.0500003E-03
+53.0000E-06,-1.0500003E-03
+53.2000E-06,-425.0003E-06
+53.4000E-06,-1.0500003E-03
+53.6000E-06,-1.0500003E-03
+53.8000E-06,-425.0003E-06
+54.0000E-06,-1.0500003E-03
+54.2000E-06,-425.0003E-06
+54.4000E-06,-425.0003E-06
+54.6000E-06,-425.0003E-06
+54.8000E-06,-1.0500003E-03
+55.0000E-06,-1.0500003E-03
+55.2000E-06,-1.0500003E-03
+55.4000E-06,-1.6750003E-03
+55.6000E-06,-1.6750003E-03
+55.8000E-06,-2.3000003E-03
+56.0000E-06,-1.6750003E-03
+56.2000E-06,-1.6750003E-03
+56.4000E-06,-1.0500003E-03
+56.6000E-06,-1.6750003E-03
+56.8000E-06,-1.6750003E-03
+57.0000E-06,-1.0500003E-03
+57.2000E-06,-1.0500003E-03
+57.4000E-06,-1.0500003E-03
+57.6000E-06,-1.6750003E-03
+57.8000E-06,-1.0500003E-03
+58.0000E-06,-1.0500003E-03
+58.2000E-06,-1.0500003E-03
+58.4000E-06,-1.0500003E-03
+58.6000E-06,-425.0003E-06
+58.8000E-06,-1.0500003E-03
+59.0000E-06,-1.6750003E-03
+59.2000E-06,-425.0003E-06
+59.4000E-06,-1.0500003E-03
+59.6000E-06,-1.0500003E-03
+59.8000E-06,-1.0500003E-03
+60.0000E-06,-1.0500003E-03
+60.2000E-06,-425.0003E-06
+60.4000E-06,-1.6750003E-03
+60.6000E-06,-1.0500003E-03
+60.8000E-06,-1.6750003E-03
+61.0000E-06,-1.6750003E-03
+61.2000E-06,-1.6750003E-03
+61.4000E-06,-1.0500003E-03
+61.6000E-06,-1.0500003E-03
+61.8000E-06,-1.0500003E-03
+62.0000E-06,-1.0500003E-03
+62.2000E-06,-425.0003E-06
+62.4000E-06,-425.0003E-06
+62.6000E-06,-1.0500003E-03
+62.8000E-06,-1.6750003E-03
+63.0000E-06,-425.0003E-06
+63.2000E-06,-425.0003E-06
+63.4000E-06,-1.6750003E-03
+63.6000E-06,-425.0003E-06
+63.8000E-06,-425.0003E-06
+64.0000E-06,-425.0003E-06
+64.2000E-06,-1.0500003E-03
+64.4000E-06,-1.0500003E-03
+64.6000E-06,-1.0500003E-03
+64.8000E-06,-1.6750003E-03
+65.0000E-06,-1.6750003E-03
+65.2000E-06,-1.6750003E-03
+65.4000E-06,-1.6750003E-03
+65.6000E-06,-1.6750003E-03
+65.8000E-06,-1.6750003E-03
+66.0000E-06,-1.6750003E-03
+66.2000E-06,-1.6750003E-03
+66.4000E-06,-1.0500003E-03
+66.6000E-06,-1.0500003E-03
+66.8000E-06,-1.0500003E-03
+67.0000E-06,-425.0003E-06
+67.2000E-06,-1.0500003E-03
+67.4000E-06,-1.0500003E-03
+67.6000E-06,-425.0003E-06
+67.8000E-06,-425.0003E-06
+68.0000E-06,-1.0500003E-03
+68.2000E-06,-1.0500003E-03
+68.4000E-06,-425.0003E-06
+68.6000E-06,-425.0003E-06
+68.8000E-06,-425.0003E-06
+69.0000E-06,-425.0003E-06
+69.2000E-06,-425.0003E-06
+69.4000E-06,-425.0003E-06
+69.6000E-06,-1.0500003E-03
+69.8000E-06,-425.0003E-06
+70.0000E-06,-1.6750003E-03
+70.2000E-06,-1.0500003E-03
+70.4000E-06,-1.0500003E-03
+70.6000E-06,-1.6750003E-03
+70.8000E-06,-1.6750003E-03
+71.0000E-06,-1.0500003E-03
+71.2000E-06,-1.6750003E-03
+71.4000E-06,-1.6750003E-03
+71.6000E-06,-1.6750003E-03
+71.8000E-06,-1.6750003E-03
+72.0000E-06,-1.6750003E-03
+72.2000E-06,-1.6750003E-03
+72.4000E-06,-1.6750003E-03
+72.6000E-06,-1.6750003E-03
+72.8000E-06,-425.0003E-06
+73.0000E-06,-1.0500003E-03
