x-axis,1
second,Volt
-39.80000E-06,+65.19999821E-03
-39.75000E-06,+64.57499822E-03
-39.70000E-06,+65.82499819E-03
-39.65000E-06,+65.19999821E-03
-39.60000E-06,+65.82499819E-03
-39.55000E-06,+65.82499819E-03
-39.50000E-06,+65.19999821E-03
-39.45000E-06,+64.57499822E-03
-39.40000E-06,+64.57499822E-03
-39.35000E-06,+64.57499822E-03
-39.30000E-06,+64.57499822E-03
-39.25000E-06,+64.57499822E-03
-39.20000E-06,+64.57499822E-03
-39.15000E-06,+63.94999824E-03
-39.10000E-06,+63.94999824E-03
-39.05000E-06,+63.94999824E-03
-39.00000E-06,+63.94999824E-03
-38.95000E-06,+64.57499822E-03
-38.90000E-06,+64.57499822E-03
-38.85000E-06,+63.94999824E-03
-38.80000E-06,+64.57499822E-03
-38.75000E-06,+64.57499822E-03
-38.70000E-06,+63.94999824E-03
-38.65000E-06,+63.94999824E-03
-38.60000E-06,+63.32499825E-03
-38.55000E-06,+63.94999824E-03
-38.50000E-06,+64.57499822E-03
-38.45000E-06,+63.94999824E-03
-38.40000E-06,+63.94999824E-03
-38.35000E-06,+64.57499822E-03
-38.30000E-06,+64.57499822E-03
-38.25000E-06,+64.57499822E-03
-38.20000E-06,+64.57499822E-03
-38.15000E-06,+65.19999821E-03
-38.10000E-06,+65.19999821E-03
-38.05000E-06,+64.57499822E-03
-38.00000E-06,+65.19999821E-03
-37.95000E-06,+65.19999821E-03
-37.90000E-06,+65.19999821E-03
-37.85000E-06,+65.19999821E-03
-37.80000E-06,+65.19999821E-03
-37.75000E-06,+65.82499819E-03
-37.70000E-06,+65.19999821E-03
-37.65000E-06,+65.19999821E-03
-37.60000E-06,+64.57499822E-03
-37.55000E-06,+65.82499819E-03
-37.50000E-06,+65.19999821E-03
-37.45000E-06,+65.19999821E-03
-37.40000E-06,+65.19999821E-03
-37.35000E-06,+65.82499819E-03
-37.30000E-06,+65.82499819E-03
-37.25000E-06,+65.82499819E-03
-37.20000E-06,+65.19999821E-03
-37.15000E-06,+65.19999821E-03
-37.10000E-06,+64.57499822E-03
-37.05000E-06,+65.82499819E-03
-37.00000E-06,+65.19999821E-03
-36.95000E-06,+65.82499819E-03
-36.90000E-06,+65.19999821E-03
-36.85000E-06,+65.19999821E-03
-36.80000E-06,+64.57499822E-03
-36.75000E-06,+65.19999821E-03
-36.70000E-06,+64.57499822E-03
-36.65000E-06,+64.57499822E-03
-36.60000E-06,+64.57499822E-03
-36.55000E-06,+65.19999821E-03
-36.50000E-06,+64.57499822E-03
-36.45000E-06,+65.19999821E-03
-36.40000E-06,+64.57499822E-03
-36.35000E-06,+63.94999824E-03
-36.30000E-06,+63.94999824E-03
-36.25000E-06,+64.57499822E-03
-36.20000E-06,+63.32499825E-03
-36.15000E-06,+64.57499822E-03
-36.10000E-06,+63.94999824E-03
-36.05000E-06,+63.94999824E-03
-36.00000E-06,+63.94999824E-03
-35.95000E-06,+63.94999824E-03
-35.90000E-06,+63.94999824E-03
-35.85000E-06,+63.94999824E-03
-35.80000E-06,+63.32499825E-03
-35.75000E-06,+63.94999824E-03
-35.70000E-06,+63.94999824E-03
-35.65000E-06,+64.57499822E-03
-35.60000E-06,+63.94999824E-03
-35.55000E-06,+63.94999824E-03
-35.50000E-06,+64.57499822E-03
-35.45000E-06,+63.94999824E-03
-35.40000E-06,+64.57499822E-03
-35.35000E-06,+64.57499822E-03
-35.30000E-06,+63.94999824E-03
-35.25000E-06,+63.94999824E-03
-35.20000E-06,+63.32499825E-03
-35.15000E-06,+63.94999824E-03
-35.10000E-06,+64.57499822E-03
-35.05000E-06,+63.94999824E-03
-35.00000E-06,+63.94999824E-03
-34.95000E-06,+64.57499822E-03
-34.90000E-06,+63.94999824E-03
-34.85000E-06,+63.94999824E-03
-34.80000E-06,+63.32499825E-03
-34.75000E-06,+63.32499825E-03
-34.70000E-06,+63.32499825E-03
-34.65000E-06,+63.32499825E-03
-34.60000E-06,+62.07499828E-03
-34.55000E-06,+63.32499825E-03
-34.50000E-06,+62.69999826E-03
-34.45000E-06,+62.69999826E-03
-34.40000E-06,+62.07499828E-03
-34.35000E-06,+63.32499825E-03
-34.30000E-06,+62.69999826E-03
-34.25000E-06,+62.69999826E-03
-34.20000E-06,+62.07499828E-03
-34.15000E-06,+62.69999826E-03
-34.10000E-06,+62.69999826E-03
-34.05000E-06,+62.69999826E-03
-34.00000E-06,+62.69999826E-03
-33.95000E-06,+62.69999826E-03
-33.90000E-06,+62.69999826E-03
-33.85000E-06,+62.69999826E-03
-33.80000E-06,+62.69999826E-03
-33.75000E-06,+63.32499825E-03
-33.70000E-06,+63.32499825E-03
-33.65000E-06,+63.32499825E-03
-33.60000E-06,+63.32499825E-03
-33.55000E-06,+63.32499825E-03
-33.50000E-06,+63.32499825E-03
-33.45000E-06,+63.32499825E-03
-33.40000E-06,+63.94999824E-03
-33.35000E-06,+63.32499825E-03
-33.30000E-06,+63.32499825E-03
-33.25000E-06,+63.94999824E-03
-33.20000E-06,+63.32499825E-03
-33.15000E-06,+63.32499825E-03
-33.10000E-06,+63.94999824E-03
-33.05000E-06,+63.94999824E-03
-33.00000E-06,+63.32499825E-03
-32.95000E-06,+63.94999824E-03
-32.90000E-06,+63.94999824E-03
-32.85000E-06,+63.94999824E-03
-32.80000E-06,+63.32499825E-03
-32.75000E-06,+64.57499822E-03
-32.70000E-06,+63.94999824E-03
-32.65000E-06,+63.32499825E-03
-32.60000E-06,+63.94999824E-03
-32.55000E-06,+63.94999824E-03
-32.50000E-06,+63.94999824E-03
-32.45000E-06,+63.94999824E-03
-32.40000E-06,+63.32499825E-03
-32.35000E-06,+63.94999824E-03
-32.30000E-06,+63.94999824E-03
-32.25000E-06,+64.57499822E-03
-32.20000E-06,+63.32499825E-03
-32.15000E-06,+63.94999824E-03
-32.10000E-06,+63.94999824E-03
-32.05000E-06,+63.32499825E-03
-32.00000E-06,+62.69999826E-03
-31.95000E-06,+62.69999826E-03
-31.90000E-06,+62.69999826E-03
-31.85000E-06,+63.32499825E-03
-31.80000E-06,+62.07499828E-03
-31.75000E-06,+63.32499825E-03
-31.70000E-06,+62.69999826E-03
-31.65000E-06,+62.69999826E-03
-31.60000E-06,+62.69999826E-03
-31.55000E-06,+62.69999826E-03
-31.50000E-06,+62.69999826E-03
-31.45000E-06,+63.32499825E-03
-31.40000E-06,+63.32499825E-03
-31.35000E-06,+63.32499825E-03
-31.30000E-06,+63.32499825E-03
-31.25000E-06,+62.69999826E-03
-31.20000E-06,+62.69999826E-03
-31.15000E-06,+63.32499825E-03
-31.10000E-06,+62.69999826E-03
-31.05000E-06,+62.69999826E-03
-31.00000E-06,+62.07499828E-03
-30.95000E-06,+62.07499828E-03
-30.90000E-06,+62.07499828E-03
-30.85000E-06,+61.44999829E-03
-30.80000E-06,+61.44999829E-03
-30.75000E-06,+62.07499828E-03
-30.70000E-06,+62.07499828E-03
-30.65000E-06,+61.44999829E-03
-30.60000E-06,+61.44999829E-03
-30.55000E-06,+62.07499828E-03
-30.50000E-06,+62.07499828E-03
-30.45000E-06,+62.07499828E-03
-30.40000E-06,+61.44999829E-03
-30.35000E-06,+62.69999826E-03
-30.30000E-06,+62.69999826E-03
-30.25000E-06,+62.07499828E-03
-30.20000E-06,+61.44999829E-03
-30.15000E-06,+62.07499828E-03
-30.10000E-06,+61.44999829E-03
-30.05000E-06,+61.44999829E-03
-30.00000E-06,+60.82499831E-03
-29.95000E-06,+61.44999829E-03
-29.90000E-06,+60.82499831E-03
-29.85000E-06,+60.82499831E-03
-29.80000E-06,+60.82499831E-03
-29.75000E-06,+60.82499831E-03
-29.70000E-06,+60.19999832E-03
-29.65000E-06,+59.57499833E-03
-29.60000E-06,+59.57499833E-03
-29.55000E-06,+60.19999832E-03
-29.50000E-06,+60.19999832E-03
-29.45000E-06,+60.19999832E-03
-29.40000E-06,+58.94999835E-03
-29.35000E-06,+60.19999832E-03
-29.30000E-06,+60.19999832E-03
-29.25000E-06,+59.57499833E-03
-29.20000E-06,+58.94999835E-03
-29.15000E-06,+59.57499833E-03
-29.10000E-06,+59.57499833E-03
-29.05000E-06,+60.19999832E-03
-29.00000E-06,+59.57499833E-03
-28.95000E-06,+60.19999832E-03
-28.90000E-06,+60.19999832E-03
-28.85000E-06,+59.57499833E-03
-28.80000E-06,+58.32499836E-03
-28.75000E-06,+59.57499833E-03
-28.70000E-06,+58.94999835E-03
-28.65000E-06,+58.94999835E-03
-28.60000E-06,+58.32499836E-03
-28.55000E-06,+59.57499833E-03
-28.50000E-06,+58.94999835E-03
-28.45000E-06,+58.94999835E-03
-28.40000E-06,+58.94999835E-03
-28.35000E-06,+58.32499836E-03
-28.30000E-06,+58.32499836E-03
-28.25000E-06,+57.69999838E-03
-28.20000E-06,+57.07499839E-03
-28.15000E-06,+57.69999838E-03
-28.10000E-06,+57.69999838E-03
-28.05000E-06,+57.07499839E-03
-28.00000E-06,+57.07499839E-03
-27.95000E-06,+57.69999838E-03
-27.90000E-06,+57.07499839E-03
-27.85000E-06,+57.07499839E-03
-27.80000E-06,+57.07499839E-03
-27.75000E-06,+57.07499839E-03
-27.70000E-06,+57.07499839E-03
-27.65000E-06,+57.07499839E-03
-27.60000E-06,+56.44999840E-03
-27.55000E-06,+57.69999838E-03
-27.50000E-06,+57.69999838E-03
-27.45000E-06,+57.07499839E-03
-27.40000E-06,+56.44999840E-03
-27.35000E-06,+57.07499839E-03
-27.30000E-06,+57.07499839E-03
-27.25000E-06,+56.44999840E-03
-27.20000E-06,+56.44999840E-03
-27.15000E-06,+57.07499839E-03
-27.10000E-06,+57.07499839E-03
-27.05000E-06,+57.07499839E-03
-27.00000E-06,+55.82499842E-03
-26.95000E-06,+56.44999840E-03
-26.90000E-06,+56.44999840E-03
-26.85000E-06,+55.82499842E-03
-26.80000E-06,+55.82499842E-03
-26.75000E-06,+56.44999840E-03
-26.70000E-06,+56.44999840E-03
-26.65000E-06,+56.44999840E-03
-26.60000E-06,+55.82499842E-03
-26.55000E-06,+56.44999840E-03
-26.50000E-06,+56.44999840E-03
-26.45000E-06,+56.44999840E-03
-26.40000E-06,+55.82499842E-03
-26.35000E-06,+55.82499842E-03
-26.30000E-06,+55.82499842E-03
-26.25000E-06,+55.19999843E-03
-26.20000E-06,+55.19999843E-03
-26.15000E-06,+55.19999843E-03
-26.10000E-06,+55.19999843E-03
-26.05000E-06,+55.82499842E-03
-26.00000E-06,+55.82499842E-03
-25.95000E-06,+55.82499842E-03
-25.90000E-06,+55.19999843E-03
-25.85000E-06,+54.57499844E-03
-25.80000E-06,+54.57499844E-03
-25.75000E-06,+54.57499844E-03
-25.70000E-06,+55.19999843E-03
-25.65000E-06,+54.57499844E-03
-25.60000E-06,+53.32499847E-03
-25.55000E-06,+54.57499844E-03
-25.50000E-06,+53.94999846E-03
-25.45000E-06,+54.57499844E-03
-25.40000E-06,+53.94999846E-03
-25.35000E-06,+54.57499844E-03
-25.30000E-06,+54.57499844E-03
-25.25000E-06,+53.94999846E-03
-25.20000E-06,+54.57499844E-03
-25.15000E-06,+54.57499844E-03
-25.10000E-06,+54.57499844E-03
-25.05000E-06,+54.57499844E-03
-25.00000E-06,+53.94999846E-03
-24.95000E-06,+53.94999846E-03
-24.90000E-06,+54.57499844E-03
-24.85000E-06,+53.94999846E-03
-24.80000E-06,+53.94999846E-03
-24.75000E-06,+54.57499844E-03
-24.70000E-06,+54.57499844E-03
-24.65000E-06,+53.94999846E-03
-24.60000E-06,+53.94999846E-03
-24.55000E-06,+54.57499844E-03
-24.50000E-06,+53.94999846E-03
-24.45000E-06,+53.94999846E-03
-24.40000E-06,+53.94999846E-03
-24.35000E-06,+54.57499844E-03
-24.30000E-06,+53.94999846E-03
-24.25000E-06,+54.57499844E-03
-24.20000E-06,+54.57499844E-03
-24.15000E-06,+54.57499844E-03
-24.10000E-06,+54.57499844E-03
-24.05000E-06,+54.57499844E-03
-24.00000E-06,+53.94999846E-03
-23.95000E-06,+54.57499844E-03
-23.90000E-06,+54.57499844E-03
-23.85000E-06,+53.94999846E-03
-23.80000E-06,+53.32499847E-03
-23.75000E-06,+54.57499844E-03
-23.70000E-06,+54.57499844E-03
-23.65000E-06,+54.57499844E-03
-23.60000E-06,+54.57499844E-03
-23.55000E-06,+54.57499844E-03
-23.50000E-06,+54.57499844E-03
-23.45000E-06,+54.57499844E-03
-23.40000E-06,+53.94999846E-03
-23.35000E-06,+53.94999846E-03
-23.30000E-06,+53.94999846E-03
-23.25000E-06,+54.57499844E-03
-23.20000E-06,+53.94999846E-03
-23.15000E-06,+53.94999846E-03
-23.10000E-06,+53.32499847E-03
-23.05000E-06,+53.32499847E-03
-23.00000E-06,+53.32499847E-03
-22.95000E-06,+53.94999846E-03
-22.90000E-06,+52.69999849E-03
-22.85000E-06,+52.69999849E-03
-22.80000E-06,+53.32499847E-03
-22.75000E-06,+52.69999849E-03
-22.70000E-06,+52.69999849E-03
-22.65000E-06,+53.32499847E-03
-22.60000E-06,+52.69999849E-03
-22.55000E-06,+52.69999849E-03
-22.50000E-06,+52.69999849E-03
-22.45000E-06,+52.07499850E-03
-22.40000E-06,+52.69999849E-03
-22.35000E-06,+52.07499850E-03
-22.30000E-06,+52.69999849E-03
-22.25000E-06,+52.69999849E-03
-22.20000E-06,+52.69999849E-03
-22.15000E-06,+52.69999849E-03
-22.10000E-06,+52.07499850E-03
-22.05000E-06,+52.69999849E-03
-22.00000E-06,+52.07499850E-03
-21.95000E-06,+52.69999849E-03
-21.90000E-06,+52.69999849E-03
-21.85000E-06,+52.69999849E-03
-21.80000E-06,+52.69999849E-03
-21.75000E-06,+52.07499850E-03
-21.70000E-06,+52.07499850E-03
-21.65000E-06,+52.07499850E-03
-21.60000E-06,+50.82499853E-03
-21.55000E-06,+51.44999851E-03
-21.50000E-06,+50.82499853E-03
-21.45000E-06,+50.19999854E-03
-21.40000E-06,+49.57499856E-03
-21.35000E-06,+49.57499856E-03
-21.30000E-06,+49.57499856E-03
-21.25000E-06,+48.94999857E-03
-21.20000E-06,+48.94999857E-03
-21.15000E-06,+49.57499856E-03
-21.10000E-06,+49.57499856E-03
-21.05000E-06,+48.94999857E-03
-21.00000E-06,+48.94999857E-03
-20.95000E-06,+49.57499856E-03
-20.90000E-06,+49.57499856E-03
-20.85000E-06,+48.94999857E-03
-20.80000E-06,+48.94999857E-03
-20.75000E-06,+49.57499856E-03
-20.70000E-06,+48.94999857E-03
-20.65000E-06,+48.94999857E-03
-20.60000E-06,+48.32499858E-03
-20.55000E-06,+49.57499856E-03
-20.50000E-06,+48.94999857E-03
-20.45000E-06,+48.94999857E-03
-20.40000E-06,+48.94999857E-03
-20.35000E-06,+49.57499856E-03
-20.30000E-06,+48.32499858E-03
-20.25000E-06,+48.32499858E-03
-20.20000E-06,+48.32499858E-03
-20.15000E-06,+48.32499858E-03
-20.10000E-06,+48.32499858E-03
-20.05000E-06,+47.69999860E-03
-20.00000E-06,+48.32499858E-03
-19.95000E-06,+48.32499858E-03
-19.90000E-06,+47.69999860E-03
-19.85000E-06,+47.69999860E-03
-19.80000E-06,+47.69999860E-03
-19.75000E-06,+48.32499858E-03
-19.70000E-06,+47.69999860E-03
-19.65000E-06,+46.44999863E-03
-19.60000E-06,+45.82499864E-03
-19.55000E-06,+45.82499864E-03
-19.50000E-06,+45.82499864E-03
-19.45000E-06,+45.19999865E-03
-19.40000E-06,+44.57499867E-03
-19.35000E-06,+45.82499864E-03
-19.30000E-06,+45.19999865E-03
-19.25000E-06,+45.19999865E-03
-19.20000E-06,+45.19999865E-03
-19.15000E-06,+45.82499864E-03
-19.10000E-06,+45.19999865E-03
-19.05000E-06,+44.57499867E-03
-19.00000E-06,+43.94999868E-03
-18.95000E-06,+45.19999865E-03
-18.90000E-06,+45.19999865E-03
-18.85000E-06,+43.94999868E-03
-18.80000E-06,+43.94999868E-03
-18.75000E-06,+44.57499867E-03
-18.70000E-06,+44.57499867E-03
-18.65000E-06,+43.94999868E-03
-18.60000E-06,+43.94999868E-03
-18.55000E-06,+44.57499867E-03
-18.50000E-06,+44.57499867E-03
-18.45000E-06,+44.57499867E-03
-18.40000E-06,+45.19999865E-03
-18.35000E-06,+44.57499867E-03
-18.30000E-06,+43.94999868E-03
-18.25000E-06,+43.94999868E-03
-18.20000E-06,+43.32499870E-03
-18.15000E-06,+43.94999868E-03
-18.10000E-06,+43.32499870E-03
-18.05000E-06,+42.69999871E-03
-18.00000E-06,+43.32499870E-03
-17.95000E-06,+43.32499870E-03
-17.90000E-06,+43.94999868E-03
-17.85000E-06,+42.69999871E-03
-17.80000E-06,+43.94999868E-03
-17.75000E-06,+44.57499867E-03
-17.70000E-06,+43.94999868E-03
-17.65000E-06,+43.94999868E-03
-17.60000E-06,+43.94999868E-03
-17.55000E-06,+44.57499867E-03
-17.50000E-06,+44.57499867E-03
-17.45000E-06,+44.57499867E-03
-17.40000E-06,+43.94999868E-03
-17.35000E-06,+44.57499867E-03
-17.30000E-06,+43.94999868E-03
-17.25000E-06,+43.94999868E-03
-17.20000E-06,+43.32499870E-03
-17.15000E-06,+43.94999868E-03
-17.10000E-06,+43.32499870E-03
-17.05000E-06,+42.69999871E-03
-17.00000E-06,+42.69999871E-03
-16.95000E-06,+43.32499870E-03
-16.90000E-06,+43.32499870E-03
-16.85000E-06,+42.69999871E-03
-16.80000E-06,+42.69999871E-03
-16.75000E-06,+43.32499870E-03
-16.70000E-06,+42.69999871E-03
-16.65000E-06,+42.69999871E-03
-16.60000E-06,+42.69999871E-03
-16.55000E-06,+42.69999871E-03
-16.50000E-06,+42.69999871E-03
-16.45000E-06,+42.07499872E-03
-16.40000E-06,+42.07499872E-03
-16.35000E-06,+42.69999871E-03
-16.30000E-06,+42.07499872E-03
-16.25000E-06,+41.44999874E-03
-16.20000E-06,+41.44999874E-03
-16.15000E-06,+41.44999874E-03
-16.10000E-06,+41.44999874E-03
-16.05000E-06,+41.44999874E-03
-16.00000E-06,+40.82499875E-03
-15.95000E-06,+41.44999874E-03
-15.90000E-06,+41.44999874E-03
-15.85000E-06,+41.44999874E-03
-15.80000E-06,+42.07499872E-03
-15.75000E-06,+41.44999874E-03
-15.70000E-06,+41.44999874E-03
-15.65000E-06,+42.07499872E-03
-15.60000E-06,+41.44999874E-03
-15.55000E-06,+42.07499872E-03
-15.50000E-06,+41.44999874E-03
-15.45000E-06,+42.07499872E-03
-15.40000E-06,+41.44999874E-03
-15.35000E-06,+41.44999874E-03
-15.30000E-06,+41.44999874E-03
-15.25000E-06,+40.82499875E-03
-15.20000E-06,+40.19999877E-03
-15.15000E-06,+40.19999877E-03
-15.10000E-06,+40.82499875E-03
-15.05000E-06,+39.57499878E-03
-15.00000E-06,+39.57499878E-03
-14.95000E-06,+39.57499878E-03
-14.90000E-06,+38.94999879E-03
-14.85000E-06,+38.32499881E-03
-14.80000E-06,+38.32499881E-03
-14.75000E-06,+38.94999879E-03
-14.70000E-06,+38.94999879E-03
-14.65000E-06,+38.32499881E-03
-14.60000E-06,+37.69999882E-03
-14.55000E-06,+38.32499881E-03
-14.50000E-06,+37.69999882E-03
-14.45000E-06,+37.07499884E-03
-14.40000E-06,+37.07499884E-03
-14.35000E-06,+37.69999882E-03
-14.30000E-06,+37.07499884E-03
-14.25000E-06,+36.44999885E-03
-14.20000E-06,+36.44999885E-03
-14.15000E-06,+37.07499884E-03
-14.10000E-06,+37.07499884E-03
-14.05000E-06,+36.44999885E-03
-14.00000E-06,+36.44999885E-03
-13.95000E-06,+36.44999885E-03
-13.90000E-06,+37.07499884E-03
-13.85000E-06,+36.44999885E-03
-13.80000E-06,+36.44999885E-03
-13.75000E-06,+37.07499884E-03
-13.70000E-06,+37.69999882E-03
-13.65000E-06,+37.07499884E-03
-13.60000E-06,+35.82499886E-03
-13.55000E-06,+37.07499884E-03
-13.50000E-06,+36.44999885E-03
-13.45000E-06,+36.44999885E-03
-13.40000E-06,+35.82499886E-03
-13.35000E-06,+35.82499886E-03
-13.30000E-06,+36.44999885E-03
-13.25000E-06,+35.82499886E-03
-13.20000E-06,+34.57499889E-03
-13.15000E-06,+35.19999888E-03
-13.10000E-06,+35.19999888E-03
-13.05000E-06,+34.57499889E-03
-13.00000E-06,+33.94999891E-03
-12.95000E-06,+33.94999891E-03
-12.90000E-06,+33.94999891E-03
-12.85000E-06,+33.94999891E-03
-12.80000E-06,+33.94999891E-03
-12.75000E-06,+33.94999891E-03
-12.70000E-06,+33.94999891E-03
-12.65000E-06,+32.69999893E-03
-12.60000E-06,+32.07499895E-03
-12.55000E-06,+32.07499895E-03
-12.50000E-06,+32.07499895E-03
-12.45000E-06,+32.07499895E-03
-12.40000E-06,+30.19999899E-03
-12.35000E-06,+31.44999896E-03
-12.30000E-06,+30.82499898E-03
-12.25000E-06,+30.82499898E-03
-12.20000E-06,+30.19999899E-03
-12.15000E-06,+31.44999896E-03
-12.10000E-06,+30.82499898E-03
-12.05000E-06,+30.82499898E-03
-12.00000E-06,+30.82499898E-03
-11.95000E-06,+31.44999896E-03
-11.90000E-06,+30.82499898E-03
-11.85000E-06,+29.57499900E-03
-11.80000E-06,+28.94999902E-03
-11.75000E-06,+28.94999902E-03
-11.70000E-06,+28.94999902E-03
-11.65000E-06,+27.69999905E-03
-11.60000E-06,+27.69999905E-03
-11.55000E-06,+28.32499903E-03
-11.50000E-06,+27.69999905E-03
-11.45000E-06,+27.69999905E-03
-11.40000E-06,+27.69999905E-03
-11.35000E-06,+27.69999905E-03
-11.30000E-06,+27.69999905E-03
-11.25000E-06,+27.07499906E-03
-11.20000E-06,+27.07499906E-03
-11.15000E-06,+27.69999905E-03
-11.10000E-06,+26.44999907E-03
-11.05000E-06,+27.07499906E-03
-11.00000E-06,+25.82499909E-03
-10.95000E-06,+26.44999907E-03
-10.90000E-06,+25.82499909E-03
-10.85000E-06,+26.44999907E-03
-10.80000E-06,+25.82499909E-03
-10.75000E-06,+26.44999907E-03
-10.70000E-06,+25.19999910E-03
-10.65000E-06,+25.82499909E-03
-10.60000E-06,+25.19999910E-03
-10.55000E-06,+26.44999907E-03
-10.50000E-06,+26.44999907E-03
-10.45000E-06,+25.82499909E-03
-10.40000E-06,+25.82499909E-03
-10.35000E-06,+25.19999910E-03
-10.30000E-06,+25.19999910E-03
-10.25000E-06,+25.82499909E-03
-10.20000E-06,+25.19999910E-03
-10.15000E-06,+25.82499909E-03
-10.10000E-06,+25.19999910E-03
-10.05000E-06,+25.82499909E-03
-10.00000E-06,+25.19999910E-03
-9.95000E-06,+25.19999910E-03
-9.90000E-06,+25.82499909E-03
-9.85000E-06,+25.19999910E-03
-9.80000E-06,+25.82499909E-03
-9.75000E-06,+25.82499909E-03
-9.70000E-06,+25.82499909E-03
-9.65000E-06,+25.19999910E-03
-9.60000E-06,+25.19999910E-03
-9.55000E-06,+25.19999910E-03
-9.50000E-06,+25.19999910E-03
-9.45000E-06,+24.57499912E-03
-9.40000E-06,+25.19999910E-03
-9.35000E-06,+25.19999910E-03
-9.30000E-06,+25.19999910E-03
-9.25000E-06,+24.57499912E-03
-9.20000E-06,+24.57499912E-03
-9.15000E-06,+25.19999910E-03
-9.10000E-06,+24.57499912E-03
-9.05000E-06,+23.32499914E-03
-9.00000E-06,+21.44999919E-03
-8.95000E-06,+20.82499920E-03
-8.90000E-06,+20.82499920E-03
-8.85000E-06,+20.19999921E-03
-8.80000E-06,+20.82499920E-03
-8.75000E-06,+21.44999919E-03
-8.70000E-06,+20.82499920E-03
-8.65000E-06,+20.19999921E-03
-8.60000E-06,+20.19999921E-03
-8.55000E-06,+20.82499920E-03
-8.50000E-06,+19.57499923E-03
-8.45000E-06,+18.32499926E-03
-8.40000E-06,+18.32499926E-03
-8.35000E-06,+18.94999924E-03
-8.30000E-06,+18.94999924E-03
-8.25000E-06,+18.32499926E-03
-8.20000E-06,+17.69999927E-03
-8.15000E-06,+17.69999927E-03
-8.10000E-06,+17.69999927E-03
-8.05000E-06,+17.69999927E-03
-8.00000E-06,+17.07499928E-03
-7.95000E-06,+17.07499928E-03
-7.90000E-06,+17.07499928E-03
-7.85000E-06,+16.44999930E-03
-7.80000E-06,+16.44999930E-03
-7.75000E-06,+17.07499928E-03
-7.70000E-06,+17.07499928E-03
-7.65000E-06,+16.44999930E-03
-7.60000E-06,+17.07499928E-03
-7.55000E-06,+17.07499928E-03
-7.50000E-06,+17.07499928E-03
-7.45000E-06,+16.44999930E-03
-7.40000E-06,+15.82499931E-03
-7.35000E-06,+15.82499931E-03
-7.30000E-06,+15.82499931E-03
-7.25000E-06,+15.82499931E-03
-7.20000E-06,+15.82499931E-03
-7.15000E-06,+16.44999930E-03
-7.10000E-06,+15.82499931E-03
-7.05000E-06,+15.82499931E-03
-7.00000E-06,+15.19999932E-03
-6.95000E-06,+15.82499931E-03
-6.90000E-06,+15.19999932E-03
-6.85000E-06,+15.82499931E-03
-6.80000E-06,+14.57499934E-03
-6.75000E-06,+15.19999932E-03
-6.70000E-06,+15.19999932E-03
-6.65000E-06,+14.57499934E-03
-6.60000E-06,+15.19999932E-03
-6.55000E-06,+15.19999932E-03
-6.50000E-06,+15.19999932E-03
-6.45000E-06,+14.57499934E-03
-6.40000E-06,+13.94999935E-03
-6.35000E-06,+15.19999932E-03
-6.30000E-06,+14.57499934E-03
-6.25000E-06,+14.57499934E-03
-6.20000E-06,+13.94999935E-03
-6.15000E-06,+14.57499934E-03
-6.10000E-06,+13.94999935E-03
-6.05000E-06,+13.32499937E-03
-6.00000E-06,+13.32499937E-03
-5.95000E-06,+13.94999935E-03
-5.90000E-06,+13.32499937E-03
-5.85000E-06,+13.32499937E-03
-5.80000E-06,+12.69999938E-03
-5.75000E-06,+13.32499937E-03
-5.70000E-06,+12.69999938E-03
-5.65000E-06,+13.32499937E-03
-5.60000E-06,+13.32499937E-03
-5.55000E-06,+13.94999935E-03
-5.50000E-06,+13.32499937E-03
-5.45000E-06,+12.69999938E-03
-5.40000E-06,+12.69999938E-03
-5.35000E-06,+12.69999938E-03
-5.30000E-06,+13.32499937E-03
-5.25000E-06,+12.69999938E-03
-5.20000E-06,+12.07499939E-03
-5.15000E-06,+13.32499937E-03
-5.10000E-06,+12.07499939E-03
-5.05000E-06,+12.07499939E-03
-5.00000E-06,+12.07499939E-03
-4.95000E-06,+12.69999938E-03
-4.90000E-06,+12.69999938E-03
-4.85000E-06,+12.69999938E-03
-4.80000E-06,+12.07499939E-03
-4.75000E-06,+11.44999941E-03
-4.70000E-06,+9.57499945E-03
-4.65000E-06,+8.94999946E-03
-4.60000E-06,+8.32499948E-03
-4.55000E-06,+8.32499948E-03
-4.50000E-06,+7.07499951E-03
-4.45000E-06,+7.07499951E-03
-4.40000E-06,+6.44999952E-03
-4.35000E-06,+7.07499951E-03
-4.30000E-06,+5.82499953E-03
-4.25000E-06,+5.82499953E-03
-4.20000E-06,+5.82499953E-03
-4.15000E-06,+5.82499953E-03
-4.10000E-06,+5.82499953E-03
-4.05000E-06,+6.44999952E-03
-4.00000E-06,+5.19999955E-03
-3.95000E-06,+5.82499953E-03
-3.90000E-06,+5.82499953E-03
-3.85000E-06,+5.82499953E-03
-3.80000E-06,+5.19999955E-03
-3.75000E-06,+5.82499953E-03
-3.70000E-06,+5.19999955E-03
-3.65000E-06,+5.19999955E-03
-3.60000E-06,+5.19999955E-03
-3.55000E-06,+5.19999955E-03
-3.50000E-06,+5.82499953E-03
-3.45000E-06,+4.57499956E-03
-3.40000E-06,+4.57499956E-03
-3.35000E-06,+5.82499953E-03
-3.30000E-06,+5.82499953E-03
-3.25000E-06,+5.19999955E-03
-3.20000E-06,+5.82499953E-03
-3.15000E-06,+5.82499953E-03
-3.10000E-06,+5.82499953E-03
-3.05000E-06,+4.57499956E-03
-3.00000E-06,+5.19999955E-03
-2.95000E-06,+5.82499953E-03
-2.90000E-06,+5.19999955E-03
-2.85000E-06,+5.19999955E-03
-2.80000E-06,+5.19999955E-03
-2.75000E-06,+6.44999952E-03
-2.70000E-06,+5.19999955E-03
-2.65000E-06,+5.19999955E-03
-2.60000E-06,+5.82499953E-03
-2.55000E-06,+5.82499953E-03
-2.50000E-06,+5.19999955E-03
-2.45000E-06,+5.82499953E-03
-2.40000E-06,+5.19999955E-03
-2.35000E-06,+5.19999955E-03
-2.30000E-06,+5.82499953E-03
-2.25000E-06,+5.19999955E-03
-2.20000E-06,+5.82499953E-03
-2.15000E-06,+5.82499953E-03
-2.10000E-06,+5.82499953E-03
-2.05000E-06,+5.82499953E-03
-2.00000E-06,+5.19999955E-03
-1.95000E-06,+5.19999955E-03
-1.90000E-06,+4.57499956E-03
-1.85000E-06,+4.57499956E-03
-1.80000E-06,+3.94999958E-03
-1.75000E-06,+3.94999958E-03
-1.70000E-06,+3.94999958E-03
-1.65000E-06,+3.32499959E-03
-1.60000E-06,+2.07499962E-03
-1.55000E-06,+2.69999960E-03
-1.50000E-06,+2.07499962E-03
-1.45000E-06,+2.07499962E-03
-1.40000E-06,+1.44999963E-03
-1.35000E-06,+2.07499962E-03
-1.30000E-06,+1.44999963E-03
-1.25000E-06,+1.44999963E-03
-1.20000E-06,+824.99965E-06
-1.15000E-06,+1.44999963E-03
-1.10000E-06,+1.44999963E-03
-1.05000E-06,+824.99965E-06
-1.00000E-06,+824.99965E-06
-950.00E-09,+1.44999963E-03
-900.00E-09,+824.99965E-06
-850.00E-09,+824.99965E-06
-800.00E-09,+199.99966E-06
-750.00E-09,+1.44999963E-03
-700.00E-09,+1.44999963E-03
-650.00E-09,+824.99965E-06
-600.00E-09,+824.99965E-06
-550.00E-09,+824.99965E-06
-500.00E-09,+824.99965E-06
-450.00E-09,+824.99965E-06
-400.00E-09,+199.99966E-06
-350.00E-09,+824.99965E-06
-300.00E-09,+199.99966E-06
-250.00E-09,+824.99965E-06
-200.00E-09,+199.99966E-06
-150.00E-09,+824.99965E-06
-100.00E-09,+199.99966E-06
-50.00E-09,+199.99966E-06
+0.0E+00,+199.99966E-06
+50.00E-09,+824.99965E-06
+100.00E-09,+824.99965E-06
+150.00E-09,+824.99965E-06
+200.00E-09,+199.99966E-06
+250.00E-09,+824.99965E-06
+300.00E-09,+824.99965E-06
+350.00E-09,+199.99966E-06
+400.00E-09,+199.99966E-06
+450.00E-09,+824.99965E-06
+500.00E-09,+824.99965E-06
+550.00E-09,+824.99965E-06
+600.00E-09,-425.00033E-06
+650.00E-09,+824.99965E-06
+700.00E-09,+199.99966E-06
+750.00E-09,+199.99966E-06
+800.00E-09,-425.00033E-06
+850.00E-09,+199.99966E-06
+900.00E-09,+824.99965E-06
+950.00E-09,+199.99966E-06
+1.00000E-06,-425.00033E-06
+1.05000E-06,+199.99966E-06
+1.10000E-06,+199.99966E-06
+1.15000E-06,-425.00033E-06
+1.20000E-06,-425.00033E-06
+1.25000E-06,+199.99966E-06
+1.30000E-06,+824.99965E-06
+1.35000E-06,-425.00033E-06
+1.40000E-06,+199.99966E-06
+1.45000E-06,+824.99965E-06
+1.50000E-06,+824.99965E-06
+1.55000E-06,+199.99966E-06
+1.60000E-06,-425.00033E-06
+1.65000E-06,+199.99966E-06
+1.70000E-06,-425.00033E-06
+1.75000E-06,-425.00033E-06
+1.80000E-06,-425.00033E-06
+1.85000E-06,+824.99965E-06
+1.90000E-06,+199.99966E-06
+1.95000E-06,+199.99966E-06
+2.00000E-06,+199.99966E-06
+2.05000E-06,+824.99965E-06
+2.10000E-06,+199.99966E-06
+2.15000E-06,+199.99966E-06
+2.20000E-06,+199.99966E-06
+2.25000E-06,+199.99966E-06
+2.30000E-06,+199.99966E-06
+2.35000E-06,+824.99965E-06
+2.40000E-06,+199.99966E-06
+2.45000E-06,+824.99965E-06
+2.50000E-06,+199.99966E-06
+2.55000E-06,+824.99965E-06
+2.60000E-06,+824.99965E-06
+2.65000E-06,+824.99965E-06
+2.70000E-06,+824.99965E-06
+2.75000E-06,+824.99965E-06
+2.80000E-06,+199.99966E-06
+2.85000E-06,+824.99965E-06
+2.90000E-06,+824.99965E-06
+2.95000E-06,+824.99965E-06
+3.00000E-06,+199.99966E-06
+3.05000E-06,+824.99965E-06
+3.10000E-06,+824.99965E-06
+3.15000E-06,+824.99965E-06
+3.20000E-06,+199.99966E-06
+3.25000E-06,+199.99966E-06
+3.30000E-06,+824.99965E-06
+3.35000E-06,+824.99965E-06
+3.40000E-06,+824.99965E-06
+3.45000E-06,+824.99965E-06
+3.50000E-06,+824.99965E-06
+3.55000E-06,+199.99966E-06
+3.60000E-06,-425.00033E-06
+3.65000E-06,+824.99965E-06
+3.70000E-06,+199.99966E-06
+3.75000E-06,+824.99965E-06
+3.80000E-06,+199.99966E-06
+3.85000E-06,+199.99966E-06
+3.90000E-06,+199.99966E-06
+3.95000E-06,+824.99965E-06
+4.00000E-06,+199.99966E-06
+4.05000E-06,+199.99966E-06
+4.10000E-06,+199.99966E-06
+4.15000E-06,+824.99965E-06
+4.20000E-06,-425.00033E-06
+4.25000E-06,+824.99965E-06
+4.30000E-06,+824.99965E-06
+4.35000E-06,+199.99966E-06
+4.40000E-06,-1.05000031E-03
+4.45000E-06,+199.99966E-06
+4.50000E-06,+199.99966E-06
+4.55000E-06,+199.99966E-06
+4.60000E-06,-425.00033E-06
+4.65000E-06,+824.99965E-06
+4.70000E-06,-425.00033E-06
+4.75000E-06,+199.99966E-06
+4.80000E-06,-425.00033E-06
+4.85000E-06,+824.99965E-06
+4.90000E-06,+199.99966E-06
+4.95000E-06,+199.99966E-06
+5.00000E-06,+199.99966E-06
+5.05000E-06,+199.99966E-06
+5.10000E-06,-425.00033E-06
+5.15000E-06,-425.00033E-06
+5.20000E-06,-425.00033E-06
+5.25000E-06,-425.00033E-06
+5.30000E-06,+199.99966E-06
+5.35000E-06,-1.05000031E-03
+5.40000E-06,-425.00033E-06
+5.45000E-06,-425.00033E-06
+5.50000E-06,-425.00033E-06
+5.55000E-06,+199.99966E-06
+5.60000E-06,-1.05000031E-03
+5.65000E-06,+199.99966E-06
+5.70000E-06,-425.00033E-06
+5.75000E-06,-425.00033E-06
+5.80000E-06,-1.05000031E-03
+5.85000E-06,+199.99966E-06
+5.90000E-06,-425.00033E-06
+5.95000E-06,-1.05000031E-03
+6.00000E-06,-1.05000031E-03
+6.05000E-06,-425.00033E-06
+6.10000E-06,+199.99966E-06
+6.15000E-06,-425.00033E-06
+6.20000E-06,-425.00033E-06
+6.25000E-06,+199.99966E-06
+6.30000E-06,+199.99966E-06
+6.35000E-06,+199.99966E-06
+6.40000E-06,-425.00033E-06
+6.45000E-06,+199.99966E-06
+6.50000E-06,+824.99965E-06
+6.55000E-06,+199.99966E-06
+6.60000E-06,-425.00033E-06
+6.65000E-06,+199.99966E-06
+6.70000E-06,+199.99966E-06
+6.75000E-06,+824.99965E-06
+6.80000E-06,-425.00033E-06
+6.85000E-06,+824.99965E-06
+6.90000E-06,+199.99966E-06
+6.95000E-06,+199.99966E-06
+7.00000E-06,+199.99966E-06
+7.05000E-06,+824.99965E-06
+7.10000E-06,+199.99966E-06
+7.15000E-06,+824.99965E-06
+7.20000E-06,+199.99966E-06
+7.25000E-06,+824.99965E-06
+7.30000E-06,+824.99965E-06
+7.35000E-06,+199.99966E-06
+7.40000E-06,+199.99966E-06
+7.45000E-06,+199.99966E-06
+7.50000E-06,+824.99965E-06
+7.55000E-06,+199.99966E-06
+7.60000E-06,+824.99965E-06
+7.65000E-06,+199.99966E-06
+7.70000E-06,+824.99965E-06
+7.75000E-06,+824.99965E-06
+7.80000E-06,+199.99966E-06
+7.85000E-06,+824.99965E-06
+7.90000E-06,+824.99965E-06
+7.95000E-06,+824.99965E-06
+8.00000E-06,+199.99966E-06
+8.05000E-06,+824.99965E-06
+8.10000E-06,+199.99966E-06
+8.15000E-06,+824.99965E-06
+8.20000E-06,+199.99966E-06
+8.25000E-06,+824.99965E-06
+8.30000E-06,+824.99965E-06
+8.35000E-06,+824.99965E-06
+8.40000E-06,+199.99966E-06
+8.45000E-06,+199.99966E-06
+8.50000E-06,+824.99965E-06
+8.55000E-06,+199.99966E-06
+8.60000E-06,+199.99966E-06
+8.65000E-06,+824.99965E-06
+8.70000E-06,+199.99966E-06
+8.75000E-06,+824.99965E-06
+8.80000E-06,+199.99966E-06
+8.85000E-06,+824.99965E-06
+8.90000E-06,+199.99966E-06
+8.95000E-06,+824.99965E-06
+9.00000E-06,+199.99966E-06
+9.05000E-06,+199.99966E-06
+9.10000E-06,+199.99966E-06
+9.15000E-06,-425.00033E-06
+9.20000E-06,-425.00033E-06
+9.25000E-06,+199.99966E-06
+9.30000E-06,-425.00033E-06
+9.35000E-06,-425.00033E-06
+9.40000E-06,-425.00033E-06
+9.45000E-06,-425.00033E-06
+9.50000E-06,-1.05000031E-03
+9.55000E-06,-425.00033E-06
+9.60000E-06,-1.05000031E-03
+9.65000E-06,-1.05000031E-03
+9.70000E-06,-425.00033E-06
+9.75000E-06,-1.05000031E-03
+9.80000E-06,-1.67500030E-03
+9.85000E-06,-1.05000031E-03
+9.90000E-06,-425.00033E-06
+9.95000E-06,-425.00033E-06
+10.00000E-06,-1.05000031E-03
+10.05000E-06,-1.05000031E-03
+10.10000E-06,-425.00033E-06
+10.15000E-06,-1.05000031E-03
